Arithmetic/goldschmidt.vcd
$date
	Sat May  9 18:53:12 2020
$end
$version
	Icarus Verilog
$end
$timescale
	1ns
$end
$scope module goldschmidt_tb $end
$var wire 1 ! ready $end
$var wire 32 " q [31:0] $end
$var wire 3 # count [2:0] $end
$var wire 1 $ busy $end
$var reg 32 % a [31:0] $end
$var reg 32 & b [31:0] $end
$var reg 1 ' clk $end
$var reg 1 ( clrn $end
$var reg 1 ) start $end
$scope module gs $end
$var wire 32 * a [31:0] $end
$var wire 32 + b [31:0] $end
$var wire 1 ' clk $end
$var wire 1 ( clrn $end
$var wire 1 ) start $end
$var wire 1 ! ready $end
$var wire 32 , q_out [31:0] $end
$var wire 5 - msb_b [4:0] $end
$var wire 5 . msb_a [4:0] $end
$var wire 3 / count [2:0] $end
$var wire 1 $ busy $end
$var wire 32 0 b_in [31:0] $end
$var wire 32 1 a_in [31:0] $end
$var reg 32 2 q [31:0] $end
$scope module goldschmidt0 $end
$var wire 32 3 a [31:0] $end
$var wire 32 4 b [31:0] $end
$var wire 1 ' clk $end
$var wire 1 ( clrn $end
$var wire 1 ) start $end
$var wire 1 5 yn $end
$var wire 128 6 yi [127:0] $end
$var wire 128 7 xi [127:0] $end
$var wire 64 8 two_minus_yi [63:0] $end
$var wire 32 9 q [31:0] $end
$var reg 1 $ busy $end
$var reg 3 : count [2:0] $end
$var reg 1 ! ready $end
$var reg 64 ; reg_a [63:0] $end
$var reg 64 < reg_b [63:0] $end
$upscope $end
$scope module most_significant_bit_a $end
$var wire 32 = a [31:0] $end
$var reg 5 > b [4:0] $end
$upscope $end
$scope module most_significant_bit_b $end
$var wire 32 ? a [31:0] $end
$var reg 5 @ b [4:0] $end
$upscope $end
$upscope $end
$upscope $end
$enddefinitions $end
#0
$dumpvars
b100 @
b10001 ?
b110 >
b1111001 =
bx <
bx ;
bx :
bx 9
bx 8
bx 7
bx 6
x5
b10001000000000000000000000000000 4
b11110010000000000000000000000000 3
b0xxx 2
b11110010000000000000000000000000 1
b10001000000000000000000000000000 0
bx /
b110 .
b100 -
bx ,
b10001 +
b1111001 *
0)
0(
1'
b10001 &
b1111001 %
0$
bx #
b0xxx "
0!
$end
#1
0'
1)
1(
#2
b11 "
b11 2
05
b1011000110111000000000000000000000000000000000000000000000000000000000000000000000000000000000000000000000000000000000000000000 7
b110001111100000000000000000000000000000000000000000000000000000000000000000000000000000000000000000000000000000000000000000000 6
b1011110000000000000000000000000000000000000000000000000000000000 8
b1111001000000000000000000000000 ,
b1111001000000000000000000000000 9
b0 #
b0 /
b0 :
1$
b100010000000000000000000000000000000000000000000000000000000000 <
b111100100000000000000000000000000000000000000000000000000000000 ;
1'
#3
0'
0)
#4
b101 "
b101 2
b1001110000100000000000000000000000000000000000000000000000000000 8
b10110001101110000000000000000000 ,
b10110001101110000000000000000000 9
b1 #
b1 /
b1 :
b111100111010001111110000000000000000000000000000000000000000000000000000000000000000000000000000000000000000000000000000000000 6
b110001111100000000000000000000000000000000000000000000000000000 <
b1101100011000100101011100000000000000000000000000000000000000000000000000000000000000000000000000000000000000000000000000000000 7
b1011000110111000000000000000000000000000000000000000000000000000 ;
1'
#5
0'
#6
b110 "
b110 2
b1000011000101110000010000000000000000000000000000000000000000000 8
b11011000110001001010111000000000 ,
b11011000110001001010111000000000 9
b10 #
b10 /
b10 :
b111111110110011100111101011001000111111100000000000000000000000000000000000000000000000000000000000000000000000000000000000000 6
b111100111010001111110000000000000000000000000000000000000000000 <
b1110001100111011110110100110001011010010111000000000000000000000000000000000000000000000000000000000000000000000000000000000000 7
b1101100011000100101011100000000000000000000000000000000000000000 ;
1'
#7
0'
#8
b111 "
b111 2
b1000000001001100011000010100110111000000100000000000000000000000 8
b11100011001110111101101001100011 ,
b11100011001110111101101001100011 9
b11 #
b11 /
b11 :
b111111111111111110100100110110000101001101100110110000100000011010001000111111110000000000000000000000000000000000000000000000 6
b111111110110011100111101011001000111111100000000000000000000000 <
b1110001111000011011100101010100111100000110010100111101110101111001110011110001011100000000000000000000000000000000000000000000 7
b1110001100111011110110100110001011010010111000000000000000000000 ;
1'
#9
0'
#10
b1000000000000000001011011001001111010110010011001001111011111101 8
b11100011110000110111001010101010 ,
b11100011110000110111001010101010 9
b100 #
b100 /
b100 :
b111111111111111111111111111111111101111110001010110001010010010100000010111000010001101011010000111011000010101011100111110111 6
b111111111111111110100100110110000101001101100110110000100000011 <
b1110001111000011110000111100001110100110111000101111111001110101111000101000111111100101001111000100010011001100011110111110011 7
b1110001111000011011100101010100111100000110010100111101110101111 ;
1'
#11
0'
#12
15
b1000000000000000000000000000000000010000001110101001110101101110 8
b11100011110000111100001111000100 ,
b11100011110000111100001111000100 9
1!
0$
b101 #
b101 /
b101 :
b111111111111111111111111111111111111111111111111111111111111111111111011111000100111101110011010001001010101111110010010111100 6
b111111111111111111111111111111111101111110001010110001010010010 <
b1110001111000011110000111100001111000011110000111100001111000100000000111101111000110101011111111100010000110010001011101000110 7
b1110001111000011110000111100001110100110111000101111111001110101 ;
1'
#13
0'
#14
b1000000000000000000000000000000000000000000000000000000000000001 8
b110 #
b110 /
b110 :
b111111111111111111111111111111111111111111111111111111111111111111111111111111111111111111111111111111111111111111111111111111 6
b111111111111111111111111111111111111111111111111111111111111111 <
b1110001111000011110000111100001111000011110000111100001111000101110001111000011110000111100001111000011110000111100001111000100 7
b1110001111000011110000111100001111000011110000111100001111000100 ;
1'
#15
0'
#16
b111 #
b111 /
b111 :
b1110001111000011110000111100001111000011110000111100001111000110110001111000011110000111100001111000011110000111100001111000101 7
b1110001111000011110000111100001111000011110000111100001111000101 ;
1'
#17
0'
#18
b0 #
b0 /
b0 :
b1110001111000011110000111100001111000011110000111100001111000111110001111000011110000111100001111000011110000111100001111000110 7
b1110001111000011110000111100001111000011110000111100001111000110 ;
1'
