PipelinedWithInterrupt/pipelined_cpu.vcd
$date
	Mon May 18 22:34:57 2020
$end
$version
	Icarus Verilog
$end
$timescale
	1ns
$end
$scope module pipelined_cpu_exc_int_tb $end
$var wire 32 ! wdi [31:0] $end
$var wire 32 " pc [31:0] $end
$var wire 32 # malu [31:0] $end
$var wire 1 $ inta $end
$var wire 32 % inst [31:0] $end
$var wire 32 & ealu [31:0] $end
$var reg 1 ' clk $end
$var reg 1 ( clrn $end
$var reg 1 ) intr $end
$scope module cpu $end
$var wire 1 ' clk $end
$var wire 1 ( clrn $end
$var wire 32 * inst [31:0] $end
$var wire 1 ) intr $end
$var wire 32 + pc [31:0] $end
$var wire 1 , wwreg $end
$var wire 5 - wrn [4:0] $end
$var wire 1 . wreg $end
$var wire 1 / wpc $end
$var wire 32 0 wmo [31:0] $end
$var wire 1 1 wmem $end
$var wire 1 2 wm2reg $end
$var wire 32 3 wdi [31:0] $end
$var wire 32 4 walu [31:0] $end
$var wire 32 5 sta [31:0] $end
$var wire 1 6 shift $end
$var wire 2 7 selpc [1:0] $end
$var wire 5 8 rn [4:0] $end
$var wire 2 9 pcsrc [1:0] $end
$var wire 32 : pcm [31:0] $end
$var wire 32 ; pce [31:0] $end
$var wire 32 < pcd [31:0] $end
$var wire 32 = pc4 [31:0] $end
$var wire 1 > ove $end
$var wire 32 ? next_pc [31:0] $end
$var wire 1 @ mwreg $end
$var wire 1 A mwmem $end
$var wire 5 B mrn [4:0] $end
$var wire 32 C mmo [31:0] $end
$var wire 1 D mm2reg $end
$var wire 1 E misbranch $end
$var wire 2 F mfc0 [1:0] $end
$var wire 1 G mexc_ovr $end
$var wire 32 H mb [31:0] $end
$var wire 32 I malu [31:0] $end
$var wire 1 J m2reg $end
$var wire 32 K jpc [31:0] $end
$var wire 1 L jal $end
$var wire 1 M isbranch $end
$var wire 1 N irq $end
$var wire 1 $ inta $end
$var wire 32 O instruction [31:0] $end
$var wire 1 P exc_ovr $end
$var wire 1 Q ewreg0 $end
$var wire 1 R ewreg $end
$var wire 1 S ewmem $end
$var wire 1 T eshift $end
$var wire 5 U ern0 [4:0] $end
$var wire 5 V ern [4:0] $end
$var wire 32 W epc4 [31:0] $end
$var wire 32 X epc [31:0] $end
$var wire 1 Y eove $end
$var wire 2 Z emfc0 [1:0] $end
$var wire 1 [ em2reg $end
$var wire 1 \ ejal $end
$var wire 1 ] eisbranch $end
$var wire 32 ^ eimm [31:0] $end
$var wire 1 _ ecancel $end
$var wire 32 ` eb [31:0] $end
$var wire 1 a ealuimm $end
$var wire 4 b ealuc [3:0] $end
$var wire 32 c ealu [31:0] $end
$var wire 32 d ea [31:0] $end
$var wire 32 e dpc4 [31:0] $end
$var wire 32 f dinst [31:0] $end
$var wire 32 g dimm [31:0] $end
$var wire 32 h cau [31:0] $end
$var wire 1 i cancel $end
$var wire 32 j bpc [31:0] $end
$var wire 32 k b [31:0] $end
$var wire 1 l aluimm $end
$var wire 4 m aluc [3:0] $end
$var wire 32 n a [31:0] $end
$var reg 32 o program_counter [31:0] $end
$scope module exe_mem_reg $end
$var wire 1 ' clk $end
$var wire 1 ( clrn $end
$var wire 32 p pce [31:0] $end
$var wire 1 P exc_ovr $end
$var wire 1 R ewreg $end
$var wire 1 S ewmem $end
$var wire 5 q ern [4:0] $end
$var wire 1 [ em2reg $end
$var wire 1 ] eisbranch $end
$var wire 32 r eb [31:0] $end
$var wire 32 s ealu [31:0] $end
$var reg 32 t malu [31:0] $end
$var reg 32 u mb [31:0] $end
$var reg 1 G mexc_ovr $end
$var reg 1 E misbranch $end
$var reg 1 D mm2reg $end
$var reg 5 v mrn [4:0] $end
$var reg 1 A mwmem $end
$var reg 1 @ mwreg $end
$var reg 32 w pcm [31:0] $end
$upscope $end
$scope module exe_stage $end
$var wire 1 R ewreg $end
$var wire 1 P exc_ovr $end
$var wire 32 x sta [31:0] $end
$var wire 1 Q ewreg0 $end
$var wire 1 T eshift $end
$var wire 5 y ern0 [4:0] $end
$var wire 5 z ern [4:0] $end
$var wire 32 { epc4 [31:0] $end
$var wire 32 | epc [31:0] $end
$var wire 1 Y eove $end
$var wire 2 } emfc0 [1:0] $end
$var wire 1 \ ejal $end
$var wire 32 ~ eimm [31:0] $end
$var wire 32 !" eb [31:0] $end
$var wire 1 a ealuimm $end
$var wire 4 "" ealuc [3:0] $end
$var wire 32 #" ealu [31:0] $end
$var wire 32 $" ea [31:0] $end
$var wire 32 %" cau [31:0] $end
$var wire 32 &" alu_b [31:0] $end
$var wire 32 '" alu_a [31:0] $end
$var reg 32 (" alu_out [31:0] $end
$var reg 1 )" alu_overflow $end
$var reg 1 *" pc8c0r $end
$upscope $end
$scope module id_exe_reg $end
$var wire 1 ' clk $end
$var wire 1 ( clrn $end
$var wire 32 +" pcd [31:0] $end
$var wire 1 . dwreg $end
$var wire 1 1 dwmem $end
$var wire 1 6 dshift $end
$var wire 5 ," drn [4:0] $end
$var wire 32 -" dpc4 [31:0] $end
$var wire 1 > dove $end
$var wire 2 ." dmfc0 [1:0] $end
$var wire 1 J dm2reg $end
$var wire 1 L djal $end
$var wire 1 M disbranch $end
$var wire 32 /" dimm [31:0] $end
$var wire 1 i dcancel $end
$var wire 32 0" db [31:0] $end
$var wire 1 l daluimm $end
$var wire 4 1" daluc [3:0] $end
$var wire 32 2" da [31:0] $end
$var reg 32 3" ea [31:0] $end
$var reg 4 4" ealuc [3:0] $end
$var reg 1 a ealuimm $end
$var reg 32 5" eb [31:0] $end
$var reg 1 _ ecancel $end
$var reg 32 6" eimm [31:0] $end
$var reg 1 ] eisbranch $end
$var reg 1 \ ejal $end
$var reg 1 [ em2reg $end
$var reg 2 7" emfc0 [1:0] $end
$var reg 1 Y eove $end
$var reg 32 8" epc4 [31:0] $end
$var reg 5 9" ern [4:0] $end
$var reg 1 T eshift $end
$var reg 1 S ewmem $end
$var reg 1 Q ewreg $end
$var reg 32 :" pce [31:0] $end
$upscope $end
$scope module id_stage $end
$var wire 1 l aluimm $end
$var wire 1 ;" arith $end
$var wire 1 i cancel $end
$var wire 1 ' clk $end
$var wire 1 ( clrn $end
$var wire 32 <" ealu [31:0] $end
$var wire 1 _ ecancel $end
$var wire 1 ] eisbranch $end
$var wire 1 [ em2reg $end
$var wire 5 =" ern [4:0] $end
$var wire 1 R ewreg $end
$var wire 1 >" exc $end
$var wire 1 ?" exc_int $end
$var wire 1 @" exc_over $end
$var wire 1 P exc_ovr $end
$var wire 1 A" exc_sys $end
$var wire 1 B" exc_uni $end
$var wire 1 C" i_add $end
$var wire 1 D" i_and $end
$var wire 1 E" i_eret $end
$var wire 1 F" i_jr $end
$var wire 1 G" i_mfc0 $end
$var wire 1 H" i_mtc0 $end
$var wire 1 I" i_or $end
$var wire 1 J" i_rs $end
$var wire 1 K" i_rt $end
$var wire 1 L" i_sll $end
$var wire 1 M" i_sra $end
$var wire 1 N" i_srl $end
$var wire 1 O" i_sub $end
$var wire 1 P" i_syscall $end
$var wire 1 Q" i_xor $end
$var wire 1 $ inta $end
$var wire 1 M isbranch $end
$var wire 1 L jal $end
$var wire 1 J m2reg $end
$var wire 32 R" malu [31:0] $end
$var wire 1 G mexc_ovr $end
$var wire 1 E misbranch $end
$var wire 1 D mm2reg $end
$var wire 5 S" mrn [4:0] $end
$var wire 1 @ mwreg $end
$var wire 1 / nostall $end
$var wire 5 T" op1 [4:0] $end
$var wire 1 > ove $end
$var wire 32 U" pc [31:0] $end
$var wire 32 V" pce [31:0] $end
$var wire 32 W" pcm [31:0] $end
$var wire 1 X" regrt $end
$var wire 1 Y" sext $end
$var wire 1 6 shift $end
$var wire 1 Z" unimplemented_inst $end
$var wire 1 [" wcause $end
$var wire 1 \" wepc $end
$var wire 1 1 wmem $end
$var wire 1 . wreg $end
$var wire 1 ]" wstatus $end
$var wire 1 , wwreg $end
$var wire 5 ^" wrn [4:0] $end
$var wire 32 _" wdi [31:0] $end
$var wire 2 `" selpc [1:0] $end
$var wire 2 a" sel_epc [1:0] $end
$var wire 5 b" rt [4:0] $end
$var wire 1 c" rs_rt_equal $end
$var wire 5 d" rs [4:0] $end
$var wire 5 e" rn [4:0] $end
$var wire 1 f" rd_is_status $end
$var wire 1 g" rd_is_epc $end
$var wire 1 h" rd_is_cause $end
$var wire 5 i" rd [4:0] $end
$var wire 32 j" qb [31:0] $end
$var wire 32 k" qa [31:0] $end
$var wire 2 l" pcsrc [1:0] $end
$var wire 32 m" pcd [31:0] $end
$var wire 6 n" op [5:0] $end
$var wire 32 o" mmo [31:0] $end
$var wire 2 p" mfc0 [1:0] $end
$var wire 32 q" jpc [31:0] $end
$var wire 1 N irq $end
$var wire 32 r" inst [31:0] $end
$var wire 16 s" imm [15:0] $end
$var wire 1 t" i_xori $end
$var wire 1 u" i_sw $end
$var wire 1 v" i_ori $end
$var wire 1 w" i_lw $end
$var wire 1 x" i_lui $end
$var wire 1 y" i_jal $end
$var wire 1 z" i_j $end
$var wire 1 {" i_bne $end
$var wire 1 |" i_beq $end
$var wire 1 }" i_andi $end
$var wire 1 ~" i_addi $end
$var wire 6 !# func [5:0] $end
$var wire 2 "# exccode [1:0] $end
$var wire 32 ## dpc4 [31:0] $end
$var wire 32 $# dimm [31:0] $end
$var wire 32 %# cause [31:0] $end
$var wire 32 &# bpc [31:0] $end
$var wire 4 '# aluc [3:0] $end
$var wire 26 (# addr [25:0] $end
$var reg 32 )# a [31:0] $end
$var reg 32 *# b [31:0] $end
$var reg 32 +# c0_cause [31:0] $end
$var reg 32 ,# c0_epc [31:0] $end
$var reg 32 -# c0_status [31:0] $end
$var reg 32 .# epc_in [31:0] $end
$var reg 2 /# fwda [1:0] $end
$var reg 2 0# fwdb [1:0] $end
$scope module regfile0 $end
$var wire 1 1# clk $end
$var wire 1 ( clrn $end
$var wire 5 2# rna [4:0] $end
$var wire 5 3# rnb [4:0] $end
$var wire 5 4# wn [4:0] $end
$var wire 1 , we $end
$var wire 32 5# qb [31:0] $end
$var wire 32 6# qa [31:0] $end
$var wire 32 7# d [31:0] $end
$var integer 32 8# i [31:0] $end
$upscope $end
$upscope $end
$scope module if_id_reg $end
$var wire 1 ' clk $end
$var wire 1 ( clrn $end
$var wire 1 ) intr $end
$var wire 32 9# pc [31:0] $end
$var wire 1 / wir $end
$var wire 32 :# pc4 [31:0] $end
$var wire 32 ;# inst [31:0] $end
$var reg 32 <# dinst [31:0] $end
$var reg 32 =# dpc [31:0] $end
$var reg 32 ># dpc4 [31:0] $end
$var reg 1 N irq $end
$upscope $end
$scope module if_stage $end
$var wire 32 ?# base [31:0] $end
$var wire 32 @# bpc [31:0] $end
$var wire 32 A# epc [31:0] $end
$var wire 32 B# jpc [31:0] $end
$var wire 32 C# pc [31:0] $end
$var wire 2 D# pcsrc [1:0] $end
$var wire 32 E# rpc [31:0] $end
$var wire 2 F# selpc [1:0] $end
$var wire 32 G# inst [31:0] $end
$var reg 32 H# next_pc [31:0] $end
$var reg 32 I# npc [31:0] $end
$var reg 32 J# pc4 [31:0] $end
$scope module inst_mem $end
$var wire 32 K# a [31:0] $end
$var wire 32 L# inst [31:0] $end
$upscope $end
$upscope $end
$scope module mem_stage $end
$var wire 32 M# addr [31:0] $end
$var wire 1 ' clk $end
$var wire 32 N# datain [31:0] $end
$var wire 1 A we $end
$var wire 32 O# dataout [31:0] $end
$scope module data_mem $end
$var wire 32 P# addr [31:0] $end
$var wire 1 ' clk $end
$var wire 32 Q# datain [31:0] $end
$var wire 32 R# dataout [31:0] $end
$var wire 1 A we $end
$var integer 32 S# i [31:0] $end
$upscope $end
$upscope $end
$scope module mem_wb_reg $end
$var wire 1 ' clk $end
$var wire 1 ( clrn $end
$var wire 32 T# malu [31:0] $end
$var wire 1 D mm2reg $end
$var wire 32 U# mmo [31:0] $end
$var wire 5 V# mrn [4:0] $end
$var wire 1 @ mwreg $end
$var reg 32 W# walu [31:0] $end
$var reg 1 2 wm2reg $end
$var reg 32 X# wmo [31:0] $end
$var reg 5 Y# wrn [4:0] $end
$var reg 1 , wwreg $end
$upscope $end
$scope module wb_state $end
$var wire 32 Z# walu [31:0] $end
$var wire 1 2 wm2reg $end
$var wire 32 [# wmo [31:0] $end
$var wire 32 \# wdi [31:0] $end
$upscope $end
$upscope $end
$upscope $end
$enddefinitions $end
#0
$dumpvars
b0 \#
b0 [#
b0 Z#
b0 Y#
b0 X#
b0 W#
b0 V#
b0 U#
b0 T#
b100000 S#
b0 R#
b0 Q#
b0 P#
b0 O#
b0 N#
b0 M#
b1000000000000000000000011101 L#
b0 K#
b100 J#
b100 I#
b100 H#
b1000000000000000000000011101 G#
b0 F#
b0 E#
b0 D#
b0 C#
b0 B#
b0 A#
b0 @#
b1000 ?#
b0 >#
b0 =#
b0 <#
b1000000000000000000000011101 ;#
b100 :#
b0 9#
b100000 8#
b0 7#
b0 6#
b0 5#
b0 4#
b0 3#
b0 2#
01#
b0 0#
b0 /#
b0 .#
b0 -#
b0 ,#
b0 +#
b0 *#
b0 )#
b0 (#
b11 '#
b0 &#
b0 %#
b0 $#
b0 ##
b0 "#
b0 !#
0~"
0}"
0|"
0{"
0z"
0y"
0x"
0w"
0v"
0u"
0t"
b0 s"
b0 r"
b0 q"
b0 p"
b0 o"
b0 n"
b0 m"
b0 l"
b0 k"
b0 j"
b0 i"
0h"
0g"
0f"
b0 e"
b0 d"
1c"
b0 b"
b0 a"
b0 `"
b0 _"
b0 ^"
0]"
0\"
0["
0Z"
0Y"
0X"
b0 W"
b0 V"
b0 U"
b0 T"
b0 S"
b0 R"
0Q"
0P"
0O"
0N"
0M"
1L"
1K"
0J"
0I"
0H"
0G"
0F"
0E"
0D"
0C"
0B"
0A"
0@"
0?"
0>"
b0 ="
b0 <"
0;"
b0 :"
b0 9"
b0 8"
b0 7"
b0 6"
b0 5"
b0 4"
b0 3"
b0 2"
b11 1"
b0 0"
b0 /"
b0 ."
b0 -"
b0 ,"
b0 +"
0*"
0)"
b0 ("
b0 '"
b0 &"
b0 %"
b0 $"
b0 #"
b0 ""
b0 !"
b0 ~
b0 }
b0 |
b0 {
b0 z
b0 y
b0 x
b0 w
b0 v
b0 u
b0 t
b0 s
b0 r
b0 q
b0 p
b0 o
b0 n
b11 m
0l
b0 k
b0 j
0i
b0 h
b0 g
b0 f
b0 e
b0 d
b0 c
b0 b
0a
b0 `
0_
b0 ^
0]
0\
0[
b0 Z
0Y
b0 X
b0 W
b0 V
b0 U
0T
0S
0R
0Q
0P
b1000000000000000000000011101 O
0N
0M
0L
b0 K
0J
b0 I
b0 H
0G
b0 F
0E
0D
b0 C
b0 B
0A
0@
b100 ?
0>
b100 =
b0 <
b0 ;
b0 :
b0 9
b0 8
b0 7
16
b0 5
b0 4
b0 3
02
01
b0 0
1/
1.
b0 -
0,
b0 +
b0 *
0)
0(
1'
b0 &
b0 %
0$
b0 #
b0 "
b0 !
$end
#1
1(
#2
11#
0'
#4
0.
0K"
b0 m
b0 1"
b0 '#
06
1M
b11 9
b11 l"
b11 D#
0L"
b0 O
b0 ;#
b0 G#
b0 L#
b100 .#
1R
b1110100 K
b1110100 q"
b1110100 B#
b11101 (#
b11101 g
b11101 /"
b11101 $#
b11101 s"
b11101 !#
1z"
b10 n"
b1110100 ?
b1110100 H#
b1110100 I#
b1000 =
b1000 :#
b1000 J#
b100 "
b100 +
b100 U"
b100 o
b100 9#
b100 C#
b100 K#
1T
b11 b
b11 ""
b11 4"
1Q
b1000000000000000000000011101 %
b1000000000000000000000011101 *
b1000000000000000000000011101 f
b1000000000000000000000011101 r"
b1000000000000000000000011101 <#
b1111000 j
b1111000 &#
b1111000 @#
b100 e
b100 -"
b100 ##
b100 >#
01#
1'
#6
11#
0'
#8
1.
1K"
b0 "#
0Z"
b11 m
b11 1"
b11 '#
16
0M
b0 9
b0 l"
b0 D#
b1111000 ?
b1111000 H#
b1111000 I#
1L"
b0 K
b0 q"
b0 B#
b0 (#
b0 g
b0 /"
b0 $#
b0 s"
b0 !#
0z"
b0 n"
0R
b1111000 =
b1111000 :#
b1111000 J#
b100000000010000000000000001111 O
b100000000010000000000000001111 ;#
b100000000010000000000000001111 G#
b100000000010000000000000001111 L#
b1110100 .#
b100 <
b100 +"
b100 m"
b100 =#
b0 %
b0 *
b0 f
b0 r"
b0 <#
b1000 j
b1000 &#
b1000 @#
b1000 e
b1000 -"
b1000 ##
b1000 >#
b10000000000000000000000000000000 %#
1]
b100 W
b100 {
b100 8"
0T
b11101 ^
b11101 ~
b11101 6"
b0 b
b0 ""
b0 4"
0Q
1@
b1110100 "
b1110100 +
b1110100 U"
b1110100 o
b1110100 9#
b1110100 C#
b1110100 K#
01#
1'
#10
11#
0'
#12
0K"
1J"
b1000 8
b1000 ,"
b1000 e"
b0 m
b0 1"
b0 '#
1X"
1l
1Y"
06
0L"
1;"
b1000000100010000110000000000000 O
b1000000100010000110000000000000 ;#
b1000000100010000110000000000000 G#
b1000000100010000110000000000000 L#
1R
b1111000 .#
b1000000000000000111100 K
b1000000000000000111100 q"
b1000000000000000111100 B#
b10000000000000001111 (#
b1111 g
b1111 /"
b1111 $#
b1111 s"
b1111 !#
b1000 b"
b1000 3#
1~"
b1000 n"
b1111100 ?
b1111100 H#
b1111100 I#
b1111100 =
b1111100 :#
b1111100 J#
b1111000 "
b1111000 +
b1111000 U"
b1111000 o
b1111000 9#
b1111000 C#
b1111000 K#
1,
1E
0@
b100 ;
b100 p
b100 :"
b100 V"
b0 %#
0]
b1000 W
b1000 {
b1000 8"
1T
b0 ^
b0 ~
b0 6"
b11 b
b11 ""
b11 4"
1Q
b1110100 <
b1110100 +"
b1110100 m"
b1110100 =#
b100000000010000000000000001111 %
b100000000010000000000000001111 *
b100000000010000000000000001111 f
b100000000010000000000000001111 r"
b100000000010000000000000001111 <#
b10110100 j
b10110100 &#
b10110100 @#
b1111000 e
b1111000 -"
b1111000 ##
b1111000 >#
01#
1'
#14
11#
0'
#16
0c"
b1111 k
b1111 0"
b1111 *#
b1111 &
b1111 c
b1111 s
b1111 #"
b1111 <"
b1111 ("
0.
0J"
b1100 8
b1100 ,"
b1100 e"
0X"
0l
0Y"
1]"
1K"
b1 0#
0;"
1H"
b1000 V
b1000 q
b1000 z
b1000 ="
b10001000011000000000000000 K
b10001000011000000000000000 q"
b10001000011000000000000000 B#
b100010000110000000000000 (#
b110000000000000 g
b110000000000000 /"
b110000000000000 $#
b110000000000000 s"
b0 !#
1f"
b1100 i"
b100 T"
b100 d"
b100 2#
0~"
b10000 n"
b1111 &"
b10000000 ?
b10000000 H#
b10000000 I#
b10000000 =
b10000000 :#
b10000000 J#
b1001010000000000000011010 O
b1001010000000000000011010 ;#
b1001010000000000000011010 G#
b1001010000000000000011010 L#
b1111100 .#
b1111000 <
b1111000 +"
b1111000 m"
b1111000 =#
b1000000100010000110000000000000 %
b1000000100010000110000000000000 *
b1000000100010000110000000000000 f
b1000000100010000110000000000000 r"
b1000000100010000110000000000000 <#
b11000000001111100 j
b11000000001111100 &#
b11000000001111100 @#
b1111100 e
b1111100 -"
b1111100 ##
b1111100 >#
b1110100 ;
b1110100 p
b1110100 :"
b1110100 V"
b1111000 W
b1111000 {
b1111000 8"
0T
b1000 U
b1000 y
b1000 9"
b1111 ^
b1111 ~
b1111 6"
1a
b0 b
b0 ""
b0 4"
b100 :
b100 w
b100 W"
0E
1@
0,
b1111100 "
b1111100 +
b1111100 U"
b1111100 o
b1111100 9#
b1111100 C#
b1111100 K#
01#
1'
#18
11#
0'
#20
b1000 %#
b10 "#
1Z"
0]"
0K"
b1100 V
b1100 q
b1100 z
b1100 ="
b0 8
b0 ,"
b0 e"
0H"
b0 O
b0 ;#
b0 G#
b0 L#
b10 0#
0R
b10000000 .#
b100101000000000000001101000 K
b100101000000000000001101000 q"
b100101000000000000001101000 B#
b1001010000000000000011010 (#
b11010 g
b11010 /"
b11010 $#
b11010 s"
b11010 !#
0f"
b0 i"
b1001 T"
b1001 d"
b1001 2#
b0 n"
b10000100 ?
b10000100 H#
b10000100 I#
b10000100 =
b10000100 :#
b10000100 J#
b10000000 "
b10000000 +
b10000000 U"
b10000000 o
b10000000 9#
b10000000 C#
b10000000 K#
1,
b1110100 :
b1110100 w
b1110100 W"
b1000 B
b1000 v
b1000 S"
b1000 V#
b1111 #
b1111 I
b1111 t
b1111 R"
b1111 M#
b1111 P#
b1111 T#
b1111000 ;
b1111000 p
b1111000 :"
b1111000 V"
b1111100 W
b1111100 {
b1111100 8"
b1100 U
b1100 y
b1100 9"
b110000000000000 ^
b110000000000000 ~
b110000000000000 6"
b1111 `
b1111 r
b1111 !"
b1111 5"
0a
0Q
b1111100 <
b1111100 +"
b1111100 m"
b1111100 =#
b1001010000000000000011010 %
b1001010000000000000011010 *
b1001010000000000000011010 f
b1001010000000000000011010 r"
b1001010000000000000011010 <#
b11101000 j
b11101000 &#
b11101000 @#
b10000000 e
b10000000 -"
b10000000 ##
b10000000 >#
01#
1'
#22
11#
0'
#24
b0 %#
b0 "#
0Z"
1.
1K"
b11 m
b11 1"
b11 '#
16
1c"
1L"
b0 V
b0 q
b0 z
b0 ="
b0 k
b0 0"
b0 *#
b0 K
b0 q"
b0 B#
b0 (#
b0 g
b0 /"
b0 $#
b0 s"
b0 !#
b0 b"
b0 3#
b0 T"
b0 d"
b0 2#
b0 0#
b1111 !
b1111 3
b1111 _"
b1111 7#
b1111 \#
b10001000 ?
b10001000 H#
b10001000 I#
b10001000 =
b10001000 :#
b10001000 J#
b1100 O
b1100 ;#
b1100 G#
b1100 L#
b10000100 .#
b10000000 <
b10000000 +"
b10000000 m"
b10000000 =#
b0 %
b0 *
b0 f
b0 r"
b0 <#
b10000100 j
b10000100 &#
b10000100 @#
b10000100 e
b10000100 -"
b10000100 ##
b10000100 >#
b1111100 ;
b1111100 p
b1111100 :"
b1111100 V"
b10000000 W
b10000000 {
b10000000 8"
b0 U
b0 y
b0 9"
b11010 ^
b11010 ~
b11010 6"
b1111000 :
b1111000 w
b1111000 W"
b1100 B
b1100 v
b1100 S"
b1100 V#
b1111 H
b1111 u
b1111 N#
b1111 Q#
0@
b1000 -
b1000 ^"
b1000 4#
b1000 Y#
b1111 4
b1111 W#
b1111 Z#
b10000100 "
b10000100 +
b10000100 U"
b10000100 o
b10000100 9#
b10000100 C#
b10000100 K#
01#
1'
#26
11#
0'
#28
b0 &
b0 c
b0 s
b0 #"
b0 <"
b0 ("
0.
0K"
b0 m
b0 1"
b0 '#
06
b100 %#
b1 "#
0L"
1P"
b0 O
b0 ;#
b0 G#
b0 L#
b0 &"
1R
b10001000 .#
b110000 K
b110000 q"
b110000 B#
b1100 (#
b1100 g
b1100 /"
b1100 $#
b1100 s"
b1100 !#
b10001100 ?
b10001100 H#
b10001100 I#
b10001100 =
b10001100 :#
b10001100 J#
b10001000 "
b10001000 +
b10001000 U"
b10001000 o
b10001000 9#
b10001000 C#
b10001000 K#
b1100 -
b1100 ^"
b1100 4#
b1100 Y#
0,
b1111100 :
b1111100 w
b1111100 W"
b0 B
b0 v
b0 S"
b0 V#
b10000000 ;
b10000000 p
b10000000 :"
b10000000 V"
b10000100 W
b10000100 {
b10000100 8"
1T
b0 ^
b0 ~
b0 6"
b0 `
b0 r
b0 !"
b0 5"
b11 b
b11 ""
b11 4"
1Q
b10000100 <
b10000100 +"
b10000100 m"
b10000100 =#
b1100 %
b1100 *
b1100 f
b1100 r"
b1100 <#
b10111000 j
b10111000 &#
b10111000 @#
b10001000 e
b10001000 -"
b10001000 ##
b10001000 >#
01#
1'
#30
11#
0'
#32
1.
1K"
b11 m
b11 1"
b11 '#
16
0Z"
b0 %#
b0 "#
1L"
0P"
b0 K
b0 q"
b0 B#
b0 (#
b0 g
b0 /"
b0 $#
b0 s"
b0 !#
0R
b10010000 ?
b10010000 H#
b10010000 I#
b10010000 =
b10010000 :#
b10010000 J#
b110100000001000000000001010000 O
b110100000001000000000001010000 ;#
b110100000001000000000001010000 G#
b110100000001000000000001010000 L#
b10001100 .#
b10001000 <
b10001000 +"
b10001000 m"
b10001000 =#
b0 %
b0 *
b0 f
b0 r"
b0 <#
b10001100 j
b10001100 &#
b10001100 @#
b10001100 e
b10001100 -"
b10001100 ##
b10001100 >#
b10000100 ;
b10000100 p
b10000100 :"
b10000100 V"
b10001000 W
b10001000 {
b10001000 8"
0T
b1100 ^
b1100 ~
b1100 6"
b0 b
b0 ""
b0 4"
0Q
b10000000 :
b10000000 w
b10000000 W"
b0 H
b0 u
b0 N#
b0 Q#
b0 #
b0 I
b0 t
b0 R"
b0 M#
b0 P#
b0 T#
1@
b0 -
b0 ^"
b0 4#
b0 Y#
b10001100 "
b10001100 +
b10001100 U"
b10001100 o
b10001100 9#
b10001100 C#
b10001100 K#
01#
1'
#34
11#
0'
#36
0K"
b100 8
b100 ,"
b100 e"
1J"
1X"
1l
06
b101 m
b101 1"
b101 '#
0L"
b100000000001010000000000000100 O
b100000000001010000000000000100 ;#
b100000000001010000000000000100 G#
b100000000001010000000000000100 L#
b0 !
b0 3
b0 _"
b0 7#
b0 \#
1R
b10010000 .#
b100000000000101000000 K
b100000000000101000000 q"
b100000000000101000000 B#
b1000000000001010000 (#
b1010000 g
b1010000 /"
b1010000 $#
b1010000 s"
b10000 !#
b100 b"
b100 3#
1v"
b1101 n"
b10010100 ?
b10010100 H#
b10010100 I#
b10010100 =
b10010100 :#
b10010100 J#
b10010000 "
b10010000 +
b10010000 U"
b10010000 o
b10010000 9#
b10010000 C#
b10010000 K#
b0 4
b0 W#
b0 Z#
1,
b10000100 :
b10000100 w
b10000100 W"
0@
b10001000 ;
b10001000 p
b10001000 :"
b10001000 V"
b10001100 W
b10001100 {
b10001100 8"
1T
b0 ^
b0 ~
b0 6"
b11 b
b11 ""
b11 4"
1Q
b10001100 <
b10001100 +"
b10001100 m"
b10001100 =#
b110100000001000000000001010000 %
b110100000001000000000001010000 *
b110100000001000000000001010000 f
b110100000001000000000001010000 r"
b110100000001000000000001010000 <#
b111010000 j
b111010000 &#
b111010000 @#
b10010000 e
b10010000 -"
b10010000 ##
b10010000 >#
01#
1'
#38
11#
0'
#40
b1010000 &
b1010000 c
b1010000 s
b1010000 #"
b1010000 <"
b1010000 ("
b0 %#
b0 "#
0Z"
1.
1J"
1X"
1l
1Y"
b101 8
b101 ,"
b101 e"
1;"
b0 m
b0 1"
b0 '#
b100 V
b100 q
b100 z
b100 ="
b101000000000000010000 K
b101000000000000010000 q"
b101000000000000010000 B#
b1010000000000000100 (#
b100 g
b100 /"
b100 $#
b100 s"
b100 !#
b101 b"
b101 3#
1~"
0v"
b1000 n"
b1010000 &"
b10011000 ?
b10011000 H#
b10011000 I#
b10011000 =
b10011000 :#
b10011000 J#
b100000000100000 O
b100000000100000 ;#
b100000000100000 G#
b100000000100000 L#
b10010100 .#
b10010000 <
b10010000 +"
b10010000 m"
b10010000 =#
b100000000001010000000000000100 %
b100000000001010000000000000100 *
b100000000001010000000000000100 f
b100000000001010000000000000100 r"
b100000000001010000000000000100 <#
b10100100 j
b10100100 &#
b10100100 @#
b10010100 e
b10010100 -"
b10010100 ##
b10010100 >#
b10001100 ;
b10001100 p
b10001100 :"
b10001100 V"
b10010000 W
b10010000 {
b10010000 8"
0T
b100 U
b100 y
b100 9"
b1010000 ^
b1010000 ~
b1010000 6"
1a
b101 b
b101 ""
b101 4"
b10001000 :
b10001000 w
b10001000 W"
1@
0,
b10010100 "
b10010100 +
b10010100 U"
b10010100 o
b10010100 9#
b10010100 C#
b10010100 K#
01#
1'
#42
11#
0'
#44
b100 &
b100 c
b100 s
b100 #"
b100 <"
b100 ("
b0 %#
b0 "#
0Z"
1K"
1.
1J"
0X"
0l
0Y"
b101 V
b101 q
b101 z
b101 ="
b1000 8
b1000 ,"
b1000 e"
1C"
1;"
b10001100100010010000000000000000 O
b10001100100010010000000000000000 ;#
b10001100100010010000000000000000 G#
b10001100100010010000000000000000 L#
b10100011 C
b10100011 o"
b10100011 O#
b10100011 R#
b10100011 U#
b100 &"
b10011000 .#
b10000000010000000 K
b10000000010000000 q"
b10000000010000000 B#
b100000000100000 (#
b100000000100000 g
b100000000100000 /"
b100000000100000 $#
b100000000100000 s"
b100000 !#
b1000 i"
b0 b"
b0 3#
0~"
b0 n"
b10011100 ?
b10011100 H#
b10011100 I#
b10011100 =
b10011100 :#
b10011100 J#
b10011000 "
b10011000 +
b10011000 U"
b10011000 o
b10011000 9#
b10011000 C#
b10011000 K#
1,
b10001100 :
b10001100 w
b10001100 W"
b100 B
b100 v
b100 S"
b100 V#
b1010000 #
b1010000 I
b1010000 t
b1010000 R"
b1010000 M#
b1010000 P#
b1010000 T#
b10010000 ;
b10010000 p
b10010000 :"
b10010000 V"
b10010100 W
b10010100 {
b10010100 8"
b101 U
b101 y
b101 9"
b100 ^
b100 ~
b100 6"
b0 b
b0 ""
b0 4"
b10010100 <
b10010100 +"
b10010100 m"
b10010100 =#
b100000000100000 %
b100000000100000 *
b100000000100000 f
b100000000100000 r"
b100000000100000 <#
b10000000100011000 j
b10000000100011000 &#
b10000000100011000 @#
b10011000 e
b10011000 -"
b10011000 ##
b10011000 >#
01#
1'
#46
11#
0'
