SingleCycleWithInterrupts/single_cycle_cpu_with_interrupts_without_intr.vcd
$date
	Mon May 11 00:29:30 2020
$end
$version
	Icarus Verilog
$end
$timescale
	1ns
$end
$scope module single_cycle_cpu_with_interrupt_tb $end
$var wire 1 ! wmem $end
$var wire 32 " pc [31:0] $end
$var wire 32 # memout [31:0] $end
$var wire 1 $ inta $end
$var wire 32 % inst [31:0] $end
$var wire 32 & data [31:0] $end
$var wire 32 ' aluout [31:0] $end
$var reg 1 ( clk $end
$var reg 1 ) clrn $end
$var reg 1 * intr $end
$scope module dmem $end
$var wire 1 ( clk $end
$var wire 32 + dataout [31:0] $end
$var wire 1 ! we $end
$var wire 32 , datain [31:0] $end
$var wire 32 - addr [31:0] $end
$var integer 32 . i [31:0] $end
$upscope $end
$scope module imem $end
$var wire 32 / inst [31:0] $end
$var wire 32 0 a [31:0] $end
$upscope $end
$scope module sccpu $end
$var wire 32 1 alu [31:0] $end
$var wire 1 ( clk $end
$var wire 1 ) clrn $end
$var wire 32 2 data [31:0] $end
$var wire 32 3 inst [31:0] $end
$var wire 1 * intr $end
$var wire 32 4 mem [31:0] $end
$var wire 32 5 pc [31:0] $end
$var wire 1 6 wsta $end
$var wire 1 7 wreg $end
$var wire 1 ! wmem $end
$var wire 1 8 wepc $end
$var wire 1 9 wcau $end
$var wire 32 : shift_amount [31:0] $end
$var wire 1 ; shift $end
$var wire 1 < sext $end
$var wire 2 = selpc [1:0] $end
$var wire 5 > rt [4:0] $end
$var wire 5 ? rs [4:0] $end
$var wire 1 @ regrt $end
$var wire 5 A reg_write_port [4:0] $end
$var wire 5 B rd [4:0] $end
$var wire 32 C qb [31:0] $end
$var wire 32 D qa [31:0] $end
$var wire 2 E pcsrc [1:0] $end
$var wire 32 F pc_plus_4 [31:0] $end
$var wire 6 G op [5:0] $end
$var wire 1 H mtc0 $end
$var wire 2 I mfc0 [1:0] $end
$var wire 1 J m2reg $end
$var wire 32 K jump_pc [31:0] $end
$var wire 1 L jal $end
$var wire 1 $ inta $end
$var wire 16 M imm_sign [15:0] $end
$var wire 16 N imm [15:0] $end
$var wire 6 O func [5:0] $end
$var wire 1 P exc $end
$var wire 32 Q cause [31:0] $end
$var wire 32 R branch_pc [31:0] $end
$var wire 1 S aluimm $end
$var wire 4 T aluc [3:0] $end
$var wire 1 U alu_out_zero $end
$var wire 32 V alu_in_b [31:0] $end
$var wire 32 W alu_in_a [31:0] $end
$var wire 26 X addr [25:0] $end
$var reg 32 Y alu_out [31:0] $end
$var reg 1 Z alu_overflow $end
$var reg 32 [ c0_cause [31:0] $end
$var reg 32 \ c0_epc [31:0] $end
$var reg 32 ] c0_status [31:0] $end
$var reg 32 ^ next_pc [31:0] $end
$var reg 32 _ program_counter [31:0] $end
$var reg 32 ` reg_write_data [31:0] $end
$scope module control_unit $end
$var wire 1 S aluimm $end
$var wire 1 P exc $end
$var wire 6 a func [5:0] $end
$var wire 1 b i_add $end
$var wire 1 c i_and $end
$var wire 1 d i_eret $end
$var wire 1 e i_jr $end
$var wire 1 f i_mfc0 $end
$var wire 1 g i_mtc0 $end
$var wire 1 h i_or $end
$var wire 1 i i_sll $end
$var wire 1 j i_sra $end
$var wire 1 k i_srl $end
$var wire 1 l i_sub $end
$var wire 1 m i_syscall $end
$var wire 1 n i_xor $end
$var wire 1 $ inta $end
$var wire 1 * intr $end
$var wire 1 L jal $end
$var wire 1 J m2reg $end
$var wire 1 H mtc0 $end
$var wire 6 o op [5:0] $end
$var wire 5 p op1 [4:0] $end
$var wire 1 q overflow $end
$var wire 5 r rd [4:0] $end
$var wire 1 @ regrt $end
$var wire 1 < sext $end
$var wire 1 ; shift $end
$var wire 32 s sta [31:0] $end
$var wire 1 t unimplemented_inst $end
$var wire 1 Z v $end
$var wire 1 9 wcau $end
$var wire 1 8 wepc $end
$var wire 1 ! wmem $end
$var wire 1 7 wreg $end
$var wire 1 6 wsta $end
$var wire 1 U z $end
$var wire 2 u selpc [1:0] $end
$var wire 1 v rd_is_c0_status $end
$var wire 1 w rd_is_c0_epc $end
$var wire 1 x rd_is_c0_cause $end
$var wire 2 y pcsrc [1:0] $end
$var wire 2 z mfc0 [1:0] $end
$var wire 1 { i_xori $end
$var wire 1 | i_sw $end
$var wire 1 } i_ori $end
$var wire 1 ~ i_lw $end
$var wire 1 !" i_lui $end
$var wire 1 "" i_jal $end
$var wire 1 #" i_j $end
$var wire 1 $" i_bne $end
$var wire 1 %" i_beq $end
$var wire 1 &" i_andi $end
$var wire 1 '" i_addi $end
$var wire 32 (" cause [31:0] $end
$var wire 4 )" aluc [3:0] $end
$upscope $end
$scope module regfile0 $end
$var wire 1 ( clk $end
$var wire 1 ) clrn $end
$var wire 32 *" d [31:0] $end
$var wire 5 +" rna [4:0] $end
$var wire 5 ," rnb [4:0] $end
$var wire 1 7 we $end
$var wire 5 -" wn [4:0] $end
$var wire 32 ." qb [31:0] $end
$var wire 32 /" qa [31:0] $end
$var integer 32 0" i [31:0] $end
$upscope $end
$upscope $end
$upscope $end
$enddefinitions $end
#0
$dumpvars
b100000 0"
b0 /"
b0 ."
b0 -"
b0 ,"
b0 +"
b0 *"
b0 )"
b0 ("
0'"
0&"
0%"
0$"
1#"
0""
0!"
0~
0}
0|
0{
b0 z
b11 y
0x
0w
0v
b0 u
0t
b0 s
b0 r
0q
b0 p
b10 o
0n
0m
0l
0k
0j
0i
0h
0g
0f
0e
0d
0c
0b
b11101 a
b0 `
b0 _
b1110100 ^
b0 ]
b0 \
b0 [
0Z
b0 Y
b11101 X
b0 W
b0 V
1U
b0 T
0S
b1111000 R
b0 Q
0P
b11101 O
b11101 N
b0 M
0L
b1110100 K
0J
b0 I
0H
b10 G
b100 F
b11 E
b0 D
b0 C
b0 B
b0 A
0@
b0 ?
b0 >
b0 =
0<
0;
b0 :
09
08
07
06
b0 5
b0 4
b1000000000000000000000011101 3
b0 2
b0 1
b0 0
b1000000000000000000000011101 /
b100000 .
b0 -
b0 ,
b0 +
0*
0)
1(
b0 '
b0 &
b1000000000000000000000011101 %
0$
b0 #
b0 "
0!
$end
#1
0(
1)
#2
b1111 `
b1111 *"
0U
b1111 '
b1111 -
b1111 1
b1111 Y
b1111000 ^
17
b1000 A
b1000 -"
b0 Q
b0 ("
b1111 V
0t
1S
1@
1<
b0 E
b0 y
1'"
0#"
b1000 G
b1000 o
b1000 >
b1000 ,"
b1111 O
b1111 a
b1111 N
b1000000000000000111100 K
b10000000000000001111 X
b100000000010000000000000001111 %
b100000000010000000000000001111 /
b100000000010000000000000001111 3
b10110100 R
b1111000 F
b1110100 "
b1110100 0
b1110100 5
b1110100 _
1(
#3
0(
#4
b1111 '
b1111 -
b1111 1
b1111 Y
b1111100 ^
07
b1100 A
b1100 -"
0S
0@
0<
16
1H
1g
b1111 V
0'"
b10000 G
b10000 o
b100 ?
b100 p
b100 +"
1v
b1100 B
b1100 r
b0 O
b0 a
b110000000000000 N
b10001000011000000000000000 K
b100010000110000000000000 X
b1111 &
b1111 ,
b1111 2
b1111 C
b1111 ."
b1000000100010000110000000000000 %
b1000000100010000110000000000000 /
b1000000100010000110000000000000 3
b11000000001111100 R
b1111100 F
b1111000 "
b1111000 0
b1111000 5
b1111000 _
1(
#5
0(
#6
b10 #
b10 +
b10 4
b1001000 '
b1001000 -
b1001000 1
b1001000 Y
b10 `
b10 *"
b10000000 ^
09
08
b0 =
b0 u
0P
b0 Q
b0 ("
0t
17
1<
b1001000 V
1S
1@
06
b1000 A
b1000 -"
0H
0g
1J
1~
b100011 G
b100011 o
b0 ?
b0 p
b0 +"
0v
b0 B
b0 r
b1000 O
b1000 a
b1001000 N
b1000000000000100100000 K
b10000000000001001000 X
b1 :
b10001100000010000000000001001000 %
b10001100000010000000000001001000 /
b10001100000010000000000001001000 3
b110100000 R
b10000000 F
b1111100 "
b1111100 0
b1111100 5
b1111100 _
b1111 ]
b1111 s
1(
#7
0(
#8
b1111111111111111111111111111111 `
b1111111111111111111111111111111 *"
b1111111111111111111111111111111 #
b1111111111111111111111111111111 +
b1111111111111111111111111111111 4
b1001100 '
b1001100 -
b1001100 1
b1001100 Y
b10000100 ^
b1001 A
b1001 -"
b1001100 V
b1001 >
b1001 ,"
b1100 O
b1100 a
b1001100 N
b1001000000000100110000 K
b10010000000001001100 X
b0 &
b0 ,
b0 2
b0 C
b0 ."
b10001100000010010000000001001100 %
b10001100000010010000000001001100 /
b10001100000010010000000001001100 3
b110110100 R
b10000100 F
b10000000 "
b10000000 0
b10000000 5
b10000000 _
1(
#9
0(
#10
1q
1Z
b0 #
b0 +
b0 4
b10000000000000000000000000000001 '
b10000000000000000000000000000001 -
b10000000000000000000000000000001 1
b10000000000000000000000000000001 Y
b10000000000000000000000000000001 `
b10000000000000000000000000000001 *"
b10001000 ^
16
19
18
b10 =
b10 u
1P
b1100 Q
b1100 ("
0t
b1000 A
b1000 -"
17
0<
0S
0@
b10 W
b10 D
b10 /"
1b
b1111111111111111111111111111111 V
0J
0~
b0 G
b0 o
b1000 ?
b1000 p
b1000 +"
b1000 B
b1000 r
b100000 O
b100000 a
b100000000100000 N
b100001001010000000010000000 K
b1000010010100000000100000 X
b0 :
b1000010010100000000100000 %
b1000010010100000000100000 /
b1000010010100000000100000 3
b1111111111111111111111111111111 &
b1111111111111111111111111111111 ,
b1111111111111111111111111111111 2
b1111111111111111111111111111111 C
b1111111111111111111111111111111 ."
b10000000100001000 R
b10001000 F
b10000100 "
b10000100 0
b10000100 5
b10000100 _
1(
#11
0(
#12
b1100 `
b1100 *"
0Z
1U
b0 '
b0 -
b0 1
b0 Y
b1100 ^
b0 Q
b0 ("
0q
06
b10 I
b10 z
09
08
1@
b0 V
b11010 A
b11010 -"
b0 =
b0 u
0P
1f
b0 &
b0 ,
b0 2
b0 C
b0 ."
0b
b0 W
b10000 G
b10000 o
b0 ?
b0 p
b0 +"
b11010 >
b11010 ,"
1x
b1101 B
b1101 r
b0 O
b0 a
b110100000000000 N
b11010011010000000000000 K
b110100110100000000000 X
b0 D
b0 /"
b1000000000110100110100000000000 %
b1000000000110100110100000000000 /
b1000000000110100110100000000000 3
b10000100 \
b11110000 ]
b11110000 s
b1100 [
b11010000000001100 R
b1100 F
b1000 "
b1000 0
b1000 5
b1000 _
1(
#13
0(
#14
b1100 `
b1100 *"
0U
b1100 '
b1100 -
b1100 1
b1100 Y
b10000 ^
b0 Q
b0 ("
1S
0t
b1 T
b1 )"
1@
17
b1100 W
b11011 A
b11011 -"
b0 I
b0 z
0f
b1100 D
b1100 /"
1&"
b1100 G
b1100 o
b11010 ?
b11010 p
b11010 +"
b11011 >
b11011 ,"
0x
b0 B
b0 r
b1100 O
b1100 a
b1100 N
b1101011011000000000000110000 K
b11010110110000000000001100 X
b1100 V
b110011010110110000000000001100 %
b110011010110110000000000001100 /
b110011010110110000000000001100 3
b0 &
b0 ,
b0 2
b0 C
b0 ."
b1000000 R
b10000 F
b1100 "
b1100 0
b1100 5
b1100 _
1(
#15
0(
#16
b1101000 #
b1101000 +
b1101000 4
0U
b101100 '
b101100 -
b101100 1
b101100 Y
b1101000 `
b1101000 *"
b10100 ^
1<
b0 T
b0 )"
b100000 V
0&"
1J
1~
b100011 G
b100011 o
b11011 ?
b11011 p
b11011 +"
b100000 O
b100000 a
b100000 N
b1101111011000000000010000000 K
b11011110110000000000100000 X
b1100 &
b1100 ,
b1100 2
b1100 C
b1100 ."
b10001111011110110000000000100000 %
b10001111011110110000000000100000 /
b10001111011110110000000000100000 3
b10010100 R
b10100 F
b10000 "
b10000 0
b10000 5
b10000 _
1(
#17
0(
#18
b0 #
b0 +
b0 4
1U
b0 `
b0 *"
b0 '
b0 -
b0 1
b0 Y
b11000 ^
b0 Q
b0 ("
0t
b11 T
b11 )"
17
0<
0S
0@
1;
b0 A
b0 -"
1i
b0 V
0J
0~
b0 G
b0 o
b0 ?
b0 p
b0 +"
b0 >
b0 ,"
b0 O
b0 a
b0 N
b0 K
b0 X
b0 W
b0 %
b0 /
b0 3
b0 D
b0 /"
b0 &
b0 ,
b0 2
b0 C
b0 ."
b11000 R
b11000 F
b10100 "
b10100 0
b10100 5
b10100 _
1(
#19
0(
#20
b1101000 `
b1101000 *"
0U
b1101000 '
b1101000 -
b1101000 1
b1101000 Y
b1101000 ^
07
b0 T
b0 )"
b1101000 W
0;
b10 E
b10 y
b1101000 D
b1101000 /"
0i
1e
b11011 ?
b11011 p
b11011 +"
b1000 O
b1000 a
b1000 N
b1101100000000000000000100000 K
b11011000000000000000001000 X
b11011000000000000000001000 %
b11011000000000000000001000 /
b11011000000000000000001000 3
b111100 R
b11100 F
b11000 "
b11000 0
b11000 5
b11000 _
1(
#21
0(
#22
b0 `
b0 *"
1U
b0 '
b0 -
b0 1
b0 Y
b1101100 ^
b0 Q
b0 ("
0t
17
b11 T
b11 )"
1;
b0 E
b0 y
b0 W
b0 D
b0 /"
1i
0e
b0 ?
b0 p
b0 +"
b0 O
b0 a
b0 N
b0 K
b0 X
b0 %
b0 /
b0 3
b1101100 R
b1101100 F
b1101000 "
b1101000 0
b1101000 5
b1101000 _
1(
#23
0(
#24
b1000000 ^
07
b0 T
b0 )"
0;
b11 E
b11 y
0i
1#"
b10 G
b10 o
b10000 O
b10000 a
b10000 N
b1000000 K
b10000 X
b1000000000000000000000010000 %
b1000000000000000000000010000 /
b1000000000000000000000010000 3
b10110000 R
b1110000 F
b1101100 "
b1101100 0
b1101100 5
b1101100 _
1(
#25
0(
#26
b10000100 `
b10000100 *"
0U
b1100 '
b1100 -
b1100 1
b1100 Y
b1000100 ^
b11 I
b11 z
b0 E
b0 y
1@
17
b1100 V
b11010 A
b11010 -"
1f
b1100 &
b1100 ,
b1100 2
b1100 C
b1100 ."
0#"
b10000 G
b10000 o
b11010 >
b11010 ,"
1w
b1110 B
b1110 r
b0 O
b0 a
b111000000000000 N
b11010011100000000000000 K
b110100111000000000000 X
b1000000000110100111000000000000 %
b1000000000110100111000000000000 /
b1000000000110100111000000000000 3
b11100000001000100 R
b1000100 F
b1000000 "
b1000000 0
b1000000 5
b1000000 _
1(
#27
0(
#28
b10001000 `
b10001000 *"
b10001000 '
b10001000 -
b10001000 1
b10001000 Y
b1001000 ^
b0 Q
b0 ("
1S
0t
1<
b11010 A
b11010 -"
1@
17
b10000100 W
b0 I
b0 z
0f
b10000100 D
b10000100 /"
b100 V
1'"
b1000 G
b1000 o
b11010 ?
b11010 p
b11010 +"
0w
b0 B
b0 r
b100 O
b100 a
b100 N
b1101011010000000000000010000 K
b11010110100000000000000100 X
b10000100 &
b10000100 ,
b10000100 2
b10000100 C
b10000100 ."
b100011010110100000000000000100 %
b100011010110100000000000000100 /
b100011010110100000000000000100 3
b1011000 R
b1001000 F
b1000100 "
b1000100 0
b1000100 5
b1000100 _
1(
#29
0(
#30
b10001000 '
b10001000 -
b10001000 1
b10001000 Y
b1001100 ^
07
b1110 A
b1110 -"
0S
0@
0<
18
1H
1g
b10001000 V
0'"
b10000 G
b10000 o
b100 ?
b100 p
b100 +"
1w
b1110 B
b1110 r
b0 O
b0 a
b111000000000000 N
b10011010011100000000000000 K
b100110100111000000000000 X
b0 W
b1000000100110100111000000000000 %
b1000000100110100111000000000000 /
b1000000100110100111000000000000 3
b0 D
b0 /"
b10001000 &
b10001000 ,
b10001000 2
b10001000 C
b10001000 ."
b11100000001001100 R
b1001100 F
b1001000 "
b1001000 0
b1001000 5
b1001000 _
1(
#31
0(
#32
b0 `
b0 *"
1U
b0 '
b0 -
b0 1
b0 Y
b1010000 ^
16
b1 =
b1 u
1d
b0 V
b0 A
b0 -"
08
0H
0g
b0 &
b0 ,
b0 2
b0 C
b0 ."
b10000 ?
b10000 p
b10000 +"
b0 >
b0 ,"
0w
b0 B
b0 r
b11000 O
b11000 a
b11000 N
b1000000000000000000001100000 K
b10000000000000000000011000 X
b1000010000000000000000000011000 %
b1000010000000000000000000011000 /
b1000010000000000000000000011000 3
b10001000 \
b10110000 R
b1010000 F
b1001100 "
b1001100 0
b1001100 5
b1001100 _
1(
#33
0(
#34
b10001100 ^
17
09
08
0P
b11 T
b11 )"
b0 Q
b0 ("
0t
1;
06
1i
b0 =
b0 u
0d
b0 G
b0 o
b0 ?
b0 p
b0 +"
b0 O
b0 a
b0 N
b0 K
b0 X
b0 %
b0 /
b0 3
b10001100 R
b10001100 F
b10001000 "
b10001000 0
b10001000 5
b10001000 _
b1111 ]
b1111 s
1(
#35
0(
#36
b10010000 ^
07
16
b0 T
b0 )"
19
18
b10 =
b10 u
1P
0;
b100 Q
b100 ("
0i
1m
b1100 O
b1100 a
b1100 N
b110000 K
b1100 X
b1100 %
b1100 /
b1100 3
b11000000 R
b10010000 F
b10001100 "
b10001100 0
b10001100 5
b10001100 _
1(
#37
0(
#38
b100 `
b100 *"
0U
b10001000 '
b10001000 -
b10001000 1
b10001000 Y
b1100 ^
06
09
08
b10 I
b10 z
0t
b0 =
b0 u
0P
1@
17
b10001000 V
b11010 A
b11010 -"
b0 Q
b0 ("
1f
b10001000 &
b10001000 ,
b10001000 2
b10001000 C
b10001000 ."
0m
b10000 G
b10000 o
b11010 >
b11010 ,"
1x
b1101 B
b1101 r
b0 O
b0 a
b110100000000000 N
b11010011010000000000000 K
b110100110100000000000 X
b1000000000110100110100000000000 %
b1000000000110100110100000000000 /
b1000000000110100110100000000000 3
b11010000000001100 R
b1100 F
b1000 "
b1000 0
b1000 5
b1000 _
b10001100 \
b11110000 ]
b11110000 s
b100 [
1(
#39
0(
#40
0U
b100 `
b100 *"
b100 '
b100 -
b100 1
b100 Y
b10000 ^
b0 Q
b0 ("
1S
0t
b1 T
b1 )"
1@
17
b100 W
b11011 A
b11011 -"
b0 I
b0 z
0f
b100 D
b100 /"
b1100 V
1&"
b1100 G
b1100 o
b11010 ?
b11010 p
b11010 +"
b11011 >
b11011 ,"
0x
b0 B
b0 r
b1100 O
b1100 a
b1100 N
b1101011011000000000000110000 K
b11010110110000000000001100 X
b1101000 &
b1101000 ,
b1101000 2
b1101000 C
b1101000 ."
b110011010110110000000000001100 %
b110011010110110000000000001100 /
b110011010110110000000000001100 3
b1000000 R
b10000 F
b1100 "
b1100 0
b1100 5
b1100 _
1(
#41
0(
#42
b111100 #
b111100 +
b111100 4
0U
b100100 '
b100100 -
b100100 1
b100100 Y
b111100 `
b111100 *"
b10100 ^
1<
b0 T
b0 )"
b100000 V
0&"
1J
1~
b100011 G
b100011 o
b11011 ?
b11011 p
b11011 +"
b100000 O
b100000 a
b100000 N
b1101111011000000000010000000 K
b11011110110000000000100000 X
b10001111011110110000000000100000 %
b10001111011110110000000000100000 /
b10001111011110110000000000100000 3
b100 &
b100 ,
b100 2
b100 C
b100 ."
b10010100 R
b10100 F
b10000 "
b10000 0
b10000 5
b10000 _
1(
#43
0(
#44
b0 #
b0 +
b0 4
1U
b0 '
b0 -
b0 1
b0 Y
b0 `
b0 *"
b11000 ^
b0 Q
b0 ("
0t
b11 T
b11 )"
17
0<
0S
0@
1;
b0 A
b0 -"
1i
b0 V
b0 W
0J
0~
b0 G
b0 o
b0 ?
b0 p
b0 +"
b0 >
b0 ,"
b0 O
b0 a
b0 N
b0 K
b0 X
b0 D
b0 /"
b0 &
b0 ,
b0 2
b0 C
b0 ."
b0 %
b0 /
b0 3
b11000 R
b11000 F
b10100 "
b10100 0
b10100 5
b10100 _
1(
#45
0(
#46
b111100 `
b111100 *"
0U
b111100 '
b111100 -
b111100 1
b111100 Y
b111100 ^
07
b0 T
b0 )"
b111100 W
0;
b10 E
b10 y
b111100 D
b111100 /"
0i
1e
b11011 ?
b11011 p
b11011 +"
b1000 O
b1000 a
b1000 N
b1101100000000000000000100000 K
b11011000000000000000001000 X
b11011000000000000000001000 %
b11011000000000000000001000 /
b11011000000000000000001000 3
b111100 R
b11100 F
b11000 "
b11000 0
b11000 5
b11000 _
1(
#47
0(
#48
b0 `
b0 *"
1U
b0 '
b0 -
b0 1
b0 Y
b1000000 ^
b0 Q
b0 ("
0t
17
b11 T
b11 )"
1;
b0 E
b0 y
b0 W
b0 D
b0 /"
1i
0e
b0 ?
b0 p
b0 +"
b0 O
b0 a
b0 N
b0 K
b0 X
b0 %
b0 /
b0 3
b1000000 R
b1000000 F
b111100 "
b111100 0
b111100 5
b111100 _
1(
#49
0(
#50
b10001100 `
b10001100 *"
0U
b100 '
b100 -
b100 1
b100 Y
b1000100 ^
b0 T
b0 )"
0;
b11 I
b11 z
1@
b100 V
b11010 A
b11010 -"
0i
1f
b100 &
b100 ,
b100 2
b100 C
b100 ."
b10000 G
b10000 o
b11010 >
b11010 ,"
1w
b1110 B
b1110 r
b111000000000000 N
b11010011100000000000000 K
b110100111000000000000 X
b1000000000110100111000000000000 %
b1000000000110100111000000000000 /
b1000000000110100111000000000000 3
b11100000001000100 R
b1000100 F
b1000000 "
b1000000 0
b1000000 5
b1000000 _
1(
#51
0(
#52
b10010000 `
b10010000 *"
b10010000 '
b10010000 -
b10010000 1
b10010000 Y
b1001000 ^
b0 Q
b0 ("
1S
0t
1<
b11010 A
b11010 -"
1@
17
b10001100 W
b0 I
b0 z
0f
b10001100 D
b10001100 /"
b100 V
1'"
b1000 G
b1000 o
b11010 ?
b11010 p
b11010 +"
0w
b0 B
b0 r
b100 O
b100 a
b100 N
b1101011010000000000000010000 K
b11010110100000000000000100 X
b10001100 &
b10001100 ,
b10001100 2
b10001100 C
b10001100 ."
b100011010110100000000000000100 %
b100011010110100000000000000100 /
b100011010110100000000000000100 3
b1011000 R
b1001000 F
b1000100 "
b1000100 0
b1000100 5
b1000100 _
1(
#53
0(
#54
b10010000 '
b10010000 -
b10010000 1
b10010000 Y
b1001100 ^
07
b1110 A
b1110 -"
0S
0@
0<
18
1H
1g
b10010000 V
0'"
b10000 G
b10000 o
b100 ?
b100 p
b100 +"
1w
b1110 B
b1110 r
b0 O
b0 a
b111000000000000 N
b10011010011100000000000000 K
b100110100111000000000000 X
b0 W
b1000000100110100111000000000000 %
b1000000100110100111000000000000 /
b1000000100110100111000000000000 3
b0 D
b0 /"
b10010000 &
b10010000 ,
b10010000 2
b10010000 C
b10010000 ."
b11100000001001100 R
b1001100 F
b1001000 "
b1001000 0
b1001000 5
b1001000 _
1(
#55
0(
#56
b0 `
b0 *"
1U
b0 '
b0 -
b0 1
b0 Y
b1010000 ^
16
b1 =
b1 u
1d
b0 V
b0 A
b0 -"
08
0H
0g
b0 &
b0 ,
b0 2
b0 C
b0 ."
b10000 ?
b10000 p
b10000 +"
b0 >
b0 ,"
0w
b0 B
b0 r
b11000 O
b11000 a
b11000 N
b1000000000000000000001100000 K
b10000000000000000000011000 X
b1000010000000000000000000011000 %
b1000010000000000000000000011000 /
b1000010000000000000000000011000 3
b10010000 \
b10110000 R
b1010000 F
b1001100 "
b1001100 0
b1001100 5
b1001100 _
1(
#57
0(
#58
b10010100 ^
17
09
08
0P
b11 T
b11 )"
b0 Q
b0 ("
0t
1;
06
1i
b0 =
b0 u
0d
b0 G
b0 o
b0 ?
b0 p
b0 +"
b0 O
b0 a
b0 N
b0 K
b0 X
b0 %
b0 /
b0 3
b10010100 R
b10010100 F
b10010000 "
b10010000 0
b10010000 5
b10010000 _
b1111 ]
b1111 s
1(
#59
0(
#60
1U
b0 '
b0 -
b0 1
b0 Y
b10011000 ^
16
19
18
b10 =
b10 u
1P
b1000 Q
b1000 ("
1t
07
b0 T
b0 )"
b1111111111111111111111111111111 W
0;
b10000000000000000000000000000001 V
b1111111111111111111111111111111 D
b1111111111111111111111111111111 /"
b10000000000000000000000000000001 &
b10000000000000000000000000000001 ,
b10000000000000000000000000000001 2
b10000000000000000000000000000001 C
b10000000000000000000000000000001 ."
0i
b1001 ?
b1001 p
b1001 +"
b1000 >
b1000 ,"
b11010 O
b11010 a
b11010 N
b100101000000000000001101000 K
b1001010000000000000011010 X
b1001010000000000000011010 %
b1001010000000000000011010 /
b1001010000000000000011010 3
b100000000 R
b10011000 F
b10010100 "
b10010100 0
b10010100 5
b10010100 _
1(
#61
0(
#62
b1000 `
b1000 *"
0U
b10010000 '
b10010000 -
b10010000 1
b10010000 Y
b1100 ^
b0 Q
b0 ("
0t
06
b10 I
b10 z
09
08
1@
17
b0 W
b10010000 V
b11010 A
b11010 -"
b0 =
b0 u
0P
1f
b0 D
b0 /"
b10010000 &
b10010000 ,
b10010000 2
b10010000 C
b10010000 ."
b10000 G
b10000 o
b0 ?
b0 p
b0 +"
b11010 >
b11010 ,"
1x
b1101 B
b1101 r
b0 O
b0 a
b110100000000000 N
b11010011010000000000000 K
b110100110100000000000 X
b1000000000110100110100000000000 %
b1000000000110100110100000000000 /
b1000000000110100110100000000000 3
b11010000000001100 R
b1100 F
b1000 "
b1000 0
b1000 5
b1000 _
b10010100 \
b11110000 ]
b11110000 s
b1000 [
1(
#63
0(
#64
b1000 `
b1000 *"
b1000 '
b1000 -
b1000 1
b1000 Y
b10000 ^
b0 Q
b0 ("
1S
0t
b1 T
b1 )"
1@
17
b1000 W
b11011 A
b11011 -"
b0 I
b0 z
0f
b1000 D
b1000 /"
b1100 V
1&"
b1100 G
b1100 o
b11010 ?
b11010 p
b11010 +"
b11011 >
b11011 ,"
0x
b0 B
b0 r
b1100 O
b1100 a
b1100 N
b1101011011000000000000110000 K
b11010110110000000000001100 X
b111100 &
b111100 ,
b111100 2
b111100 C
b111100 ."
b110011010110110000000000001100 %
b110011010110110000000000001100 /
b110011010110110000000000001100 3
b1000000 R
b10000 F
b1100 "
b1100 0
b1100 5
b1100 _
1(
#65
0(
#66
b1010100 #
b1010100 +
b1010100 4
0U
b101000 '
b101000 -
b101000 1
b101000 Y
b1010100 `
b1010100 *"
b10100 ^
1<
b0 T
b0 )"
b100000 V
0&"
1J
1~
b100011 G
b100011 o
b11011 ?
b11011 p
b11011 +"
b100000 O
b100000 a
b100000 N
b1101111011000000000010000000 K
b11011110110000000000100000 X
b10001111011110110000000000100000 %
b10001111011110110000000000100000 /
b10001111011110110000000000100000 3
b1000 &
b1000 ,
b1000 2
b1000 C
b1000 ."
b10010100 R
b10100 F
b10000 "
b10000 0
b10000 5
b10000 _
1(
#67
0(
#68
b0 #
b0 +
b0 4
1U
b0 '
b0 -
b0 1
b0 Y
b0 `
b0 *"
b11000 ^
b0 Q
b0 ("
0t
b11 T
b11 )"
17
0<
0S
0@
1;
b0 A
b0 -"
1i
b0 V
b0 W
0J
0~
b0 G
b0 o
b0 ?
b0 p
b0 +"
b0 >
b0 ,"
b0 O
b0 a
b0 N
b0 K
b0 X
b0 D
b0 /"
b0 &
b0 ,
b0 2
b0 C
b0 ."
b0 %
b0 /
b0 3
b11000 R
b11000 F
b10100 "
b10100 0
b10100 5
b10100 _
1(
#69
0(
#70
b1010100 `
b1010100 *"
b100111 #
b100111 +
b100111 4
0U
b1010100 '
b1010100 -
b1010100 1
b1010100 Y
b1010100 ^
07
b0 T
b0 )"
b1010100 W
0;
b10 E
b10 y
b1010100 D
b1010100 /"
0i
1e
b11011 ?
b11011 p
b11011 +"
b1000 O
b1000 a
b1000 N
b1101100000000000000000100000 K
b11011000000000000000001000 X
b11011000000000000000001000 %
b11011000000000000000001000 /
b11011000000000000000001000 3
b111100 R
b11100 F
b11000 "
b11000 0
b11000 5
b11000 _
1(
#71
0(
#72
b0 `
b0 *"
b0 #
b0 +
b0 4
1U
b0 '
b0 -
b0 1
b0 Y
b1011000 ^
b0 Q
b0 ("
0t
17
b11 T
b11 )"
1;
b0 E
b0 y
b0 W
b0 D
b0 /"
1i
0e
b0 ?
b0 p
b0 +"
b0 O
b0 a
b0 N
b0 K
b0 X
b0 %
b0 /
b0 3
b1011000 R
b1011000 F
b1010100 "
b1010100 0
b1010100 5
b1010100 _
1(
#73
0(
#74
b1000000 ^
07
b0 T
b0 )"
0;
b11 E
b11 y
0i
1#"
b10 G
b10 o
b10000 O
b10000 a
b10000 N
b1000000 K
b10000 X
b1000000000000000000000010000 %
b1000000000000000000000010000 /
b1000000000000000000000010000 3
b10011100 R
b1011100 F
b1011000 "
b1011000 0
b1011000 5
b1011000 _
1(
#75
0(
#76
b10010100 `
b10010100 *"
0U
b1000 '
b1000 -
b1000 1
b1000 Y
b1000100 ^
b11 I
b11 z
b0 E
b0 y
1@
17
b1000 V
b11010 A
b11010 -"
1f
b1000 &
b1000 ,
b1000 2
b1000 C
b1000 ."
0#"
b10000 G
b10000 o
b11010 >
b11010 ,"
1w
b1110 B
b1110 r
b0 O
b0 a
b111000000000000 N
b11010011100000000000000 K
b110100111000000000000 X
b1000000000110100111000000000000 %
b1000000000110100111000000000000 /
b1000000000110100111000000000000 3
b11100000001000100 R
b1000100 F
b1000000 "
b1000000 0
b1000000 5
b1000000 _
1(
#77
0(
#78
b10011000 `
b10011000 *"
b10011000 '
b10011000 -
b10011000 1
b10011000 Y
b1001000 ^
b0 Q
b0 ("
1S
0t
1<
b11010 A
b11010 -"
1@
17
b10010100 W
b0 I
b0 z
0f
b10010100 D
b10010100 /"
1'"
b1000 G
b1000 o
b11010 ?
b11010 p
b11010 +"
0w
b0 B
b0 r
b100 O
b100 a
b100 N
b1101011010000000000000010000 K
b11010110100000000000000100 X
b100 V
b100011010110100000000000000100 %
b100011010110100000000000000100 /
b100011010110100000000000000100 3
b10010100 &
b10010100 ,
b10010100 2
b10010100 C
b10010100 ."
b1011000 R
b1001000 F
b1000100 "
b1000100 0
b1000100 5
b1000100 _
1(
#79
0(
