Pipelined/pipelined_cpu.vcd
$date
	Sun May 17 01:05:12 2020
$end
$version
	Icarus Verilog
$end
$timescale
	1ns
$end
$scope module pipelined_cpu_tb $end
$var wire 32 ! wdi [31:0] $end
$var wire 32 " pc [31:0] $end
$var wire 32 # malu [31:0] $end
$var wire 32 $ inst [31:0] $end
$var wire 32 % ealu [31:0] $end
$var reg 1 & clk $end
$var reg 1 ' clrn $end
$scope module plcpu $end
$var wire 1 & clk $end
$var wire 1 ' clrn $end
$var wire 32 ( inst [31:0] $end
$var wire 32 ) pc [31:0] $end
$var wire 1 * wwreg $end
$var wire 5 + wrn [4:0] $end
$var wire 1 , wreg $end
$var wire 1 - wpc $end
$var wire 32 . wmo [31:0] $end
$var wire 1 / wmem $end
$var wire 1 0 wm2reg $end
$var wire 32 1 wdi [31:0] $end
$var wire 32 2 walu [31:0] $end
$var wire 1 3 shift $end
$var wire 5 4 rn [4:0] $end
$var wire 2 5 pcsrc [1:0] $end
$var wire 32 6 pc4 [31:0] $end
$var wire 32 7 npc [31:0] $end
$var wire 1 8 mwreg $end
$var wire 1 9 mwmem $end
$var wire 5 : mrn [4:0] $end
$var wire 32 ; mmo [31:0] $end
$var wire 1 < mm2reg $end
$var wire 32 = mb [31:0] $end
$var wire 32 > malu [31:0] $end
$var wire 1 ? m2reg $end
$var wire 32 @ jpc [31:0] $end
$var wire 1 A jal $end
$var wire 32 B instruction [31:0] $end
$var wire 32 C ins [31:0] $end
$var wire 1 D ewreg $end
$var wire 1 E ewmem $end
$var wire 1 F eshift $end
$var wire 5 G ern0 [4:0] $end
$var wire 5 H ern [4:0] $end
$var wire 32 I epc4 [31:0] $end
$var wire 1 J em2reg $end
$var wire 1 K ejal $end
$var wire 32 L eimm [31:0] $end
$var wire 32 M eb [31:0] $end
$var wire 1 N ealuimm $end
$var wire 4 O ealuc [3:0] $end
$var wire 32 P ealu [31:0] $end
$var wire 32 Q ea [31:0] $end
$var wire 32 R dpc4 [31:0] $end
$var wire 32 S dimm [31:0] $end
$var wire 32 T bpc [31:0] $end
$var wire 32 U b [31:0] $end
$var wire 1 V aluimm $end
$var wire 4 W aluc [3:0] $end
$var wire 32 X a [31:0] $end
$var reg 32 Y program_counter [31:0] $end
$scope module exe_mem_reg $end
$var wire 1 & clk $end
$var wire 1 ' clrn $end
$var wire 1 D ewreg $end
$var wire 1 E ewmem $end
$var wire 5 Z ern [4:0] $end
$var wire 1 J em2reg $end
$var wire 32 [ eb [31:0] $end
$var wire 32 \ ealu [31:0] $end
$var reg 32 ] malu [31:0] $end
$var reg 32 ^ mb [31:0] $end
$var reg 1 < mm2reg $end
$var reg 5 _ mrn [4:0] $end
$var reg 1 9 mwmem $end
$var reg 1 8 mwreg $end
$upscope $end
$scope module exe_stage $end
$var wire 1 F eshift $end
$var wire 5 ` ern0 [4:0] $end
$var wire 5 a ern [4:0] $end
$var wire 32 b epc4 [31:0] $end
$var wire 1 K ejal $end
$var wire 32 c eimm [31:0] $end
$var wire 32 d eb [31:0] $end
$var wire 1 N ealuimm $end
$var wire 4 e ealuc [3:0] $end
$var wire 32 f ealu [31:0] $end
$var wire 32 g ea [31:0] $end
$var wire 32 h alu_b [31:0] $end
$var wire 32 i alu_a [31:0] $end
$var reg 32 j alu_out [31:0] $end
$upscope $end
$scope module id_exe_reg $end
$var wire 1 & clk $end
$var wire 1 ' clrn $end
$var wire 1 , dwreg $end
$var wire 1 / dwmem $end
$var wire 1 3 dshift $end
$var wire 5 k drn [4:0] $end
$var wire 32 l dpc4 [31:0] $end
$var wire 1 ? dm2reg $end
$var wire 1 A djal $end
$var wire 32 m dimm [31:0] $end
$var wire 32 n db [31:0] $end
$var wire 1 V daluimm $end
$var wire 4 o daluc [3:0] $end
$var wire 32 p da [31:0] $end
$var reg 32 q ea [31:0] $end
$var reg 4 r ealuc [3:0] $end
$var reg 1 N ealuimm $end
$var reg 32 s eb [31:0] $end
$var reg 32 t eimm [31:0] $end
$var reg 1 K ejal $end
$var reg 1 J em2reg $end
$var reg 32 u epc4 [31:0] $end
$var reg 5 v ern [4:0] $end
$var reg 1 F eshift $end
$var reg 1 E ewmem $end
$var reg 1 D ewreg $end
$upscope $end
$scope module id_stage $end
$var wire 1 V aluimm $end
$var wire 1 & clk $end
$var wire 1 ' clrn $end
$var wire 32 w ealu [31:0] $end
$var wire 1 J em2reg $end
$var wire 5 x ern [4:0] $end
$var wire 1 D ewreg $end
$var wire 1 y i_add $end
$var wire 1 z i_and $end
$var wire 1 { i_jr $end
$var wire 1 | i_or $end
$var wire 1 } i_rs $end
$var wire 1 ~ i_rt $end
$var wire 1 !" i_sll $end
$var wire 1 "" i_sra $end
$var wire 1 #" i_srl $end
$var wire 1 $" i_sub $end
$var wire 1 %" i_xor $end
$var wire 1 A jal $end
$var wire 1 ? m2reg $end
$var wire 32 &" malu [31:0] $end
$var wire 1 < mm2reg $end
$var wire 5 '" mrn [4:0] $end
$var wire 1 8 mwreg $end
$var wire 1 - nostall $end
$var wire 1 (" regrt $end
$var wire 1 )" sext $end
$var wire 1 3 shift $end
$var wire 1 / wmem $end
$var wire 1 , wreg $end
$var wire 1 * wwreg $end
$var wire 5 *" wrn [4:0] $end
$var wire 32 +" wdi [31:0] $end
$var wire 5 ," rt [4:0] $end
$var wire 1 -" rs_rt_equal $end
$var wire 5 ." rs [4:0] $end
$var wire 5 /" rn [4:0] $end
$var wire 5 0" rd [4:0] $end
$var wire 32 1" qb [31:0] $end
$var wire 32 2" qa [31:0] $end
$var wire 2 3" pcsrc [1:0] $end
$var wire 6 4" op [5:0] $end
$var wire 32 5" mmo [31:0] $end
$var wire 32 6" jpc [31:0] $end
$var wire 32 7" inst [31:0] $end
$var wire 16 8" imm [15:0] $end
$var wire 1 9" i_xori $end
$var wire 1 :" i_sw $end
$var wire 1 ;" i_ori $end
$var wire 1 <" i_lw $end
$var wire 1 =" i_lui $end
$var wire 1 >" i_jal $end
$var wire 1 ?" i_j $end
$var wire 1 @" i_bne $end
$var wire 1 A" i_beq $end
$var wire 1 B" i_andi $end
$var wire 1 C" i_addi $end
$var wire 6 D" func [5:0] $end
$var wire 32 E" dpc4 [31:0] $end
$var wire 32 F" dimm [31:0] $end
$var wire 32 G" bpc [31:0] $end
$var wire 4 H" aluc [3:0] $end
$var wire 26 I" addr [25:0] $end
$var reg 32 J" a [31:0] $end
$var reg 32 K" b [31:0] $end
$var reg 2 L" fwda [1:0] $end
$var reg 2 M" fwdb [1:0] $end
$scope module regfile0 $end
$var wire 1 N" clk $end
$var wire 1 ' clrn $end
$var wire 5 O" rna [4:0] $end
$var wire 5 P" rnb [4:0] $end
$var wire 5 Q" wn [4:0] $end
$var wire 1 * we $end
$var wire 32 R" qb [31:0] $end
$var wire 32 S" qa [31:0] $end
$var wire 32 T" d [31:0] $end
$var integer 32 U" i [31:0] $end
$upscope $end
$upscope $end
$scope module if_id_reg $end
$var wire 1 & clk $end
$var wire 1 ' clrn $end
$var wire 1 - wir $end
$var wire 32 V" pc4 [31:0] $end
$var wire 32 W" inst [31:0] $end
$var wire 32 X" ins [31:0] $end
$var wire 32 Y" dpc4 [31:0] $end
$var reg 32 Z" instruction [31:0] $end
$var reg 32 [" pc_plus4 [31:0] $end
$upscope $end
$scope module if_stage $end
$var wire 32 \" bpc [31:0] $end
$var wire 32 ]" jpc [31:0] $end
$var wire 32 ^" pc [31:0] $end
$var wire 2 _" pcsrc [1:0] $end
$var wire 32 `" rpc [31:0] $end
$var wire 32 a" inst [31:0] $end
$var reg 32 b" npc [31:0] $end
$var reg 32 c" pc4 [31:0] $end
$scope module inst_mem $end
$var wire 32 d" a [31:0] $end
$var wire 32 e" inst [31:0] $end
$upscope $end
$upscope $end
$scope module mem_stage $end
$var wire 32 f" addr [31:0] $end
$var wire 1 & clk $end
$var wire 32 g" datain [31:0] $end
$var wire 1 9 we $end
$var wire 32 h" dataout [31:0] $end
$scope module data_mem $end
$var wire 32 i" addr [31:0] $end
$var wire 1 & clk $end
$var wire 32 j" datain [31:0] $end
$var wire 32 k" dataout [31:0] $end
$var wire 1 9 we $end
$var integer 32 l" i [31:0] $end
$upscope $end
$upscope $end
$scope module mem_wb_reg $end
$var wire 1 & clk $end
$var wire 1 ' clrn $end
$var wire 32 m" malu [31:0] $end
$var wire 1 < mm2reg $end
$var wire 32 n" mmo [31:0] $end
$var wire 5 o" mrn [4:0] $end
$var wire 1 8 mwreg $end
$var reg 32 p" walu [31:0] $end
$var reg 1 0 wm2reg $end
$var reg 32 q" wmo [31:0] $end
$var reg 5 r" wrn [4:0] $end
$var reg 1 * wwreg $end
$upscope $end
$scope module wb_state $end
$var wire 32 s" walu [31:0] $end
$var wire 1 0 wm2reg $end
$var wire 32 t" wmo [31:0] $end
$var wire 32 u" wdi [31:0] $end
$upscope $end
$upscope $end
$upscope $end
$enddefinitions $end
#0
$dumpvars
b0 u"
b0 t"
b0 s"
b0 r"
b0 q"
b0 p"
b0 o"
b0 n"
b0 m"
b100000 l"
b0 k"
b0 j"
b0 i"
b0 h"
b0 g"
b0 f"
b111100000000010000000000000000 e"
b0 d"
b100 c"
b100 b"
b111100000000010000000000000000 a"
b0 `"
b0 _"
b0 ^"
b0 ]"
b0 \"
b0 ["
b0 Z"
b0 Y"
b0 X"
b111100000000010000000000000000 W"
b100 V"
b100000 U"
b0 T"
b0 S"
b0 R"
b0 Q"
b0 P"
b0 O"
0N"
b0 M"
b0 L"
b0 K"
b0 J"
b0 I"
b11 H"
b0 G"
b0 F"
b0 E"
b0 D"
0C"
0B"
0A"
0@"
0?"
0>"
0="
0<"
0;"
0:"
09"
b0 8"
b0 7"
b0 6"
b0 5"
b0 4"
b0 3"
b0 2"
b0 1"
b0 0"
b0 /"
b0 ."
1-"
b0 ,"
b0 +"
b0 *"
0)"
0("
b0 '"
b0 &"
0%"
0$"
0#"
0""
1!"
1~
0}
0|
0{
0z
0y
b0 x
b0 w
b0 v
b0 u
b0 t
b0 s
b0 r
b0 q
b0 p
b11 o
b0 n
b0 m
b0 l
b0 k
b0 j
b0 i
b0 h
b0 g
b0 f
b0 e
b0 d
b0 c
b0 b
b0 a
b0 `
b0 _
b0 ^
b0 ]
b0 \
b0 [
b0 Z
b0 Y
b0 X
b11 W
0V
b0 U
b0 T
b0 S
b0 R
b0 Q
b0 P
b0 O
0N
b0 M
b0 L
0K
0J
b0 I
b0 H
b0 G
0F
0E
0D
b0 C
b111100000000010000000000000000 B
0A
b0 @
0?
b0 >
b0 =
0<
b0 ;
b0 :
09
08
b100 7
b100 6
b0 5
b0 4
13
b0 2
b0 1
00
0/
b0 .
1-
1,
b0 +
0*
b0 )
b0 (
0'
1&
b0 %
b0 $
b0 #
b0 "
b0 !
$end
#1
1'
#2
1N"
0&
#4
0~
03
b1 4
b1 k
b1 /"
1V
0!"
1("
b110 W
b110 o
b110 H"
b110100001001000000000001010000 B
b110100001001000000000001010000 W"
b110100001001000000000001010000 a"
b110100001001000000000001010000 e"
b1000000000000000000 @
b1000000000000000000 6"
b1000000000000000000 ]"
b10000000000000000 I"
b1 ,"
b1 P"
1="
b1111 4"
b1000 7
b1000 b"
b1000 6
b1000 V"
b1000 c"
b100 "
b100 )
b100 Y
b100 ^"
b100 d"
1F
b11 O
b11 e
b11 r
1D
b111100000000010000000000000000 $
b111100000000010000000000000000 (
b111100000000010000000000000000 C
b111100000000010000000000000000 7"
b111100000000010000000000000000 X"
b111100000000010000000000000000 Z"
b100 T
b100 G"
b100 \"
b100 R
b100 l
b100 E"
b100 Y"
b100 ["
0N"
1&
#6
1N"
0&
#8
1}
1,
1V
b100 4
b100 k
b100 /"
b1 L"
1("
b101 W
b101 o
b101 H"
b1 H
b1 Z
b1 a
b1 x
b100100000000000101000000 @
b100100000000000101000000 6"
b100100000000000101000000 ]"
b1001000000000001010000 I"
b1010000 S
b1010000 m
b1010000 F"
b1010000 8"
b10000 D"
b100 ,"
b100 P"
b1 ."
b1 O"
1;"
0="
b1101 4"
b1100000000000000000000011011 B
b1100000000000000000000011011 W"
b1100000000000000000000011011 a"
b1100000000000000000000011011 e"
b1100 7
b1100 b"
b1100 6
b1100 V"
b1100 c"
b110100001001000000000001010000 $
b110100001001000000000001010000 (
b110100001001000000000001010000 C
b110100001001000000000001010000 7"
b110100001001000000000001010000 X"
b110100001001000000000001010000 Z"
b101001000 T
b101001000 G"
b101001000 \"
b1000 R
b1000 l
b1000 E"
b1000 Y"
b1000 ["
b100 I
b100 b
b100 u
0F
b1 G
b1 `
b1 v
1N
b110 O
b110 e
b110 r
18
b1000 "
b1000 )
b1000 Y
b1000 ^"
b1000 d"
0N"
1&
#10
1N"
0&
#12
b1010000 %
b1010000 P
b1010000 \
b1010000 f
b1010000 w
b1010000 j
0}
0V
0("
b100 H
b100 Z
b100 a
b100 x
b0 4
b0 k
b0 /"
b0 W
b0 o
b0 H"
b11 5
b11 3"
b11 _"
b100000000001010000000000000100 B
b100000000001010000000000000100 W"
b100000000001010000000000000100 a"
b100000000001010000000000000100 e"
b0 L"
b1010000 h
b1101100 @
b1101100 6"
b1101100 ]"
b11011 I"
b11011 S
b11011 m
b11011 F"
b11011 8"
b11011 D"
b0 ,"
b0 P"
b0 ."
b0 O"
0;"
1A
1>"
b11 4"
b1101100 7
b1101100 b"
b10000 6
b10000 V"
b10000 c"
b1100 "
b1100 )
b1100 Y
b1100 ^"
b1100 d"
1*
b1 :
b1 _
b1 '"
b1 o"
b1000 I
b1000 b
b1000 u
b100 G
b100 `
b100 v
b1010000 L
b1010000 c
b1010000 t
b101 O
b101 e
b101 r
b1100000000000000000000011011 $
b1100000000000000000000011011 (
b1100000000000000000000011011 C
b1100000000000000000000011011 7"
b1100000000000000000000011011 X"
b1100000000000000000000011011 Z"
b1111000 T
b1111000 G"
b1111000 \"
b1100 R
b1100 l
b1100 E"
b1100 Y"
b1100 ["
0N"
1&
#14
1N"
0&
#16
b0 j
1}
b101 4
b101 k
b101 /"
1V
1("
1)"
1,
b1110000 7
b1110000 b"
b0 5
b0 3"
b0 _"
b11111 H
b11111 Z
b11111 a
b11111 x
b101000000000000010000 @
b101000000000000010000 6"
b101000000000000010000 ]"
b1010000000000000100 I"
b100 S
b100 m
b100 F"
b100 8"
b100 D"
b101 ,"
b101 P"
1C"
0A
0>"
b1000 4"
b10000 %
b10000 P
b10000 \
b10000 f
b10000 w
b0 h
b10100011 ;
b10100011 5"
b10100011 h"
b10100011 k"
b10100011 n"
b100000000100000 B
b100000000100000 W"
b100000000100000 a"
b100000000100000 e"
b1110000 6
b1110000 V"
b1110000 c"
b100000000001010000000000000100 $
b100000000001010000000000000100 (
b100000000001010000000000000100 C
b100000000001010000000000000100 7"
b100000000001010000000000000100 X"
b100000000001010000000000000100 Z"
b100000 T
b100000 G"
b100000 \"
b10000 R
b10000 l
b10000 E"
b10000 Y"
b10000 ["
b1100 I
b1100 b
b1100 u
1K
b0 G
b0 `
b0 v
b11011 L
b11011 c
b11011 t
0N
b0 O
b0 e
b0 r
b100 :
b100 _
b100 '"
b100 o"
b1010000 #
b1010000 >
b1010000 ]
b1010000 &"
b1010000 f"
b1010000 i"
b1010000 m"
b1 +
b1 *"
b1 Q"
b1 r"
b1101100 "
b1101100 )
b1101100 Y
b1101100 ^"
b1101100 d"
0N"
1&
#18
1N"
0&
#20
b100 j
1~
1,
1}
0V
0("
0)"
b101 H
b101 Z
b101 a
b101 x
b1000 4
b1000 k
b1000 /"
1y
b10001100100010010000000000000000 B
b10001100100010010000000000000000 W"
b10001100100010010000000000000000 a"
b10001100100010010000000000000000 e"
b1010000 !
b1010000 1
b1010000 +"
b1010000 T"
b1010000 u"
b0 ;
b0 5"
b0 h"
b0 k"
b0 n"
b100 %
b100 P
b100 \
b100 f
b100 w
b100 h
b10000000010000000 @
b10000000010000000 6"
b10000000010000000 ]"
b100000000100000 I"
b100000000100000 S
b100000000100000 m
b100000000100000 F"
b100000000100000 8"
b100000 D"
b1000 0"
b0 ,"
b0 P"
0C"
b0 4"
b1110100 7
b1110100 b"
b1110100 6
b1110100 V"
b1110100 c"
b1110000 "
b1110000 )
b1110000 Y
b1110000 ^"
b1110000 d"
b100 +
b100 *"
b100 Q"
b100 r"
b1010000 2
b1010000 p"
b1010000 s"
b10100011 .
b10100011 q"
b10100011 t"
b11111 :
b11111 _
b11111 '"
b11111 o"
b10000 #
b10000 >
b10000 ]
b10000 &"
b10000 f"
b10000 i"
b10000 m"
b10000 I
b10000 b
b10000 u
0K
b101 G
b101 `
b101 v
b100 L
b100 c
b100 t
1N
b100000000100000 $
b100000000100000 (
b100000000100000 C
b100000000100000 7"
b100000000100000 X"
b100000000100000 Z"
b10000000011110000 T
b10000000011110000 G"
b10000000011110000 \"
b1110000 R
b1110000 l
b1110000 E"
b1110000 Y"
b1110000 ["
0N"
1&
#22
1N"
0&
#24
b0 %
b0 P
b0 \
b0 f
b0 w
b0 j
0~
1)"
0-"
1V
b1010000 X
b1010000 p
b1010000 J"
b1010000 `"
1("
b1001 4
b1001 k
b1001 /"
b1010000 2"
b1010000 S"
0y
b1000 H
b1000 Z
b1000 a
b1000 x
b10001001000000000000000000 @
b10001001000000000000000000 6"
b10001001000000000000000000 ]"
b100010010000000000000000 I"
b0 S
b0 m
b0 F"
b0 8"
b0 D"
b0 0"
b1001 ,"
b1001 P"
b100 ."
b100 O"
1?
1<"
b100011 4"
b0 h
b10000 !
b10000 1
b10000 +"
b10000 T"
b10000 u"
b1000010010100000000100000 B
b1000010010100000000100000 W"
b1000010010100000000100000 a"
b1000010010100000000100000 e"
b1111000 7
b1111000 b"
b1111000 6
b1111000 V"
b1111000 c"
b10001100100010010000000000000000 $
b10001100100010010000000000000000 (
b10001100100010010000000000000000 C
b10001100100010010000000000000000 7"
b10001100100010010000000000000000 X"
b10001100100010010000000000000000 Z"
b1110100 T
b1110100 G"
b1110100 \"
b1110100 R
b1110100 l
b1110100 E"
b1110100 Y"
b1110100 ["
b1110000 I
b1110000 b
b1110000 u
b1000 G
b1000 `
b1000 v
b100000000100000 L
b100000000100000 c
b100000000100000 t
0N
b101 :
b101 _
b101 '"
b101 o"
b100 #
b100 >
b100 ]
b100 &"
b100 f"
b100 i"
b100 m"
b11111 +
b11111 *"
b11111 Q"
b11111 r"
b10000 2
b10000 p"
b10000 s"
b0 .
b0 q"
b0 t"
b1110100 "
b1110100 )
b1110100 Y
b1110100 ^"
b1110100 d"
0N"
1&
#26
1N"
0&
#28
b1010000 %
b1010000 P
b1010000 \
b1010000 f
b1010000 w
b1010000 j
1~
0)"
0,
1}
0-
b1000 4
b1000 k
b1000 /"
0V
0("
1-"
b1001 H
b1001 Z
b1001 a
b1001 x
b0 2"
b0 S"
1y
b100000101001011111111111111111 B
b100000101001011111111111111111 W"
b100000101001011111111111111111 a"
b100000101001011111111111111111 e"
b100 !
b100 1
b100 +"
b100 T"
b100 u"
b0 X
b0 p
b0 J"
b0 `"
b1010000 i
b10 L"
b100001001010000000010000000 @
b100001001010000000010000000 6"
b100001001010000000010000000 ]"
b1000010010100000000100000 I"
b100000000100000 S
b100000000100000 m
b100000000100000 F"
b100000000100000 8"
b100000 D"
b1000 0"
b1000 ."
b1000 O"
0?
0<"
b0 4"
b1111100 7
b1111100 b"
b1111100 6
b1111100 V"
b1111100 c"
b1111000 "
b1111000 )
b1111000 Y
b1111000 ^"
b1111000 d"
b101 +
b101 *"
b101 Q"
b101 r"
b100 2
b100 p"
b100 s"
b1000 :
b1000 _
b1000 '"
b1000 o"
b0 #
b0 >
b0 ]
b0 &"
b0 f"
b0 i"
b0 m"
b1110100 I
b1110100 b
b1110100 u
b1001 G
b1001 `
b1001 v
b0 L
b0 c
b0 t
b1010000 Q
b1010000 g
b1010000 q
1N
1J
b1000010010100000000100000 $
b1000010010100000000100000 (
b1000010010100000000100000 C
b1000010010100000000100000 7"
b1000010010100000000100000 X"
b1000010010100000000100000 Z"
b10000000011111000 T
b10000000011111000 G"
b10000000011111000 \"
b1111000 R
b1111000 l
b1111000 E"
b1111000 Y"
b1111000 ["
0N"
1&
#30
1N"
0&
#32
b0 %
b0 P
b0 \
b0 f
b0 w
b0 j
1,
1-
b1000 H
b1000 Z
b1000 a
b1000 x
0-"
b0 i
b10100011 U
b10100011 n
b10100011 K"
b10100011 ;
b10100011 5"
b10100011 h"
b10100011 k"
b10100011 n"
b11 M"
b0 L"
b0 !
b0 1
b0 +"
b0 T"
b0 u"
b1111000 I
b1111000 b
b1111000 u
b1000 G
b1000 `
b1000 v
b100000000100000 L
b100000000100000 c
b100000000100000 t
b0 Q
b0 g
b0 q
0N
0J
0D
b1001 :
b1001 _
b1001 '"
b1001 o"
b1010000 #
b1010000 >
b1010000 ]
b1010000 &"
b1010000 f"
b1010000 i"
b1010000 m"
1<
b1000 +
b1000 *"
b1000 Q"
b1000 r"
b0 2
b0 p"
b0 s"
0N"
1&
#34
1N"
0&
#36
b10100011 %
b10100011 P
b10100011 \
b10100011 f
b10100011 w
b10100011 j
0~
1V
1("
1)"
b100 X
b100 p
b100 J"
b100 `"
1-"
b101 4
b101 k
b101 /"
b100 1"
b100 R"
b100 2"
b100 S"
0y
b10100101000001111111111111100 B
b10100101000001111111111111100 W"
b10100101000001111111111111100 a"
b10100101000001111111111111100 e"
b10100011 !
b10100011 1
b10100011 +"
b10100011 T"
b10100011 u"
b100 U
b100 n
b100 K"
b0 ;
b0 5"
b0 h"
b0 k"
b0 n"
b10100011 h
b0 M"
b10100101111111111111111100 @
b10100101111111111111111100 6"
b10100101111111111111111100 ]"
b101001011111111111111111 I"
b11111111111111111111111111111111 S
b11111111111111111111111111111111 m
b11111111111111111111111111111111 F"
b1111111111111111 8"
b111111 D"
b11111 0"
b101 ,"
b101 P"
b101 ."
b101 O"
1C"
b1000 4"
b10000000 7
b10000000 b"
b10000000 6
b10000000 V"
b10000000 c"
b1111100 "
b1111100 )
b1111100 Y
b1111100 ^"
b1111100 d"
b1001 +
b1001 *"
b1001 Q"
b1001 r"
b1010000 2
b1010000 p"
b1010000 s"
b10100011 .
b10100011 q"
b10100011 t"
10
b1000 :
b1000 _
b1000 '"
b1000 o"
b0 #
b0 >
b0 ]
b0 &"
b0 f"
b0 i"
b0 m"
0<
08
b10100011 M
b10100011 [
b10100011 d
b10100011 s
1D
b100000101001011111111111111111 $
b100000101001011111111111111111 (
b100000101001011111111111111111 C
b100000101001011111111111111111 7"
b100000101001011111111111111111 X"
b100000101001011111111111111111 Z"
b1111000 T
b1111000 G"
b1111000 \"
b1111100 R
b1111100 l
b1111100 E"
b1111100 Y"
b1111100 ["
0N"
1&
#38
1N"
0&
#40
b11 %
b11 P
b11 \
b11 f
b11 w
b11 j
b1 5
b1 3"
b1 _"
0,
0V
0("
0-"
b0 U
b0 n
b0 K"
b11 X
b11 p
b11 J"
b11 `"
b11111 4
b11111 k
b11111 /"
b0 1"
b0 R"
b1 L"
b10 W
b10 o
b10 H"
1~
b101 H
b101 Z
b101 a
b101 x
b10100000111111111111110000 @
b10100000111111111111110000 6"
b10100000111111111111110000 ]"
b101000001111111111111100 I"
b11111111111111111111111111111100 S
b11111111111111111111111111111100 m
b11111111111111111111111111111100 F"
b1111111111111100 8"
b111100 D"
b0 ,"
b0 P"
0C"
1@"
b101 4"
b100 i
b11111111111111111111111111111111 h
b0 !
b0 1
b0 +"
b0 T"
b0 u"
b100000100001000000000000000100 B
b100000100001000000000000000100 W"
b100000100001000000000000000100 a"
b100000100001000000000000000100 e"
b1110000 7
b1110000 b"
b10000100 6
b10000100 V"
b10000100 c"
b10100101000001111111111111100 $
b10100101000001111111111111100 (
b10100101000001111111111111100 C
b10100101000001111111111111100 7"
b10100101000001111111111111100 X"
b10100101000001111111111111100 Z"
b1110000 T
b1110000 G"
b1110000 \"
b10000000 R
b10000000 l
b10000000 E"
b10000000 Y"
b10000000 ["
b1111100 I
b1111100 b
b1111100 u
b101 G
b101 `
b101 v
b11111111111111111111111111111111 L
b11111111111111111111111111111111 c
b11111111111111111111111111111111 t
b100 M
b100 [
b100 d
b100 s
b100 Q
b100 g
b100 q
1N
b10100011 =
b10100011 ^
b10100011 g"
b10100011 j"
b10100011 #
b10100011 >
b10100011 ]
b10100011 &"
b10100011 f"
b10100011 i"
b10100011 m"
18
b1000 +
b1000 *"
b1000 Q"
b1000 r"
b0 2
b0 p"
b0 s"
b0 .
b0 q"
b0 t"
00
0*
b10000000 "
b10000000 )
b10000000 Y
b10000000 ^"
b10000000 d"
0N"
1&
#42
1N"
0&
#44
b11 j
1,
1V
1("
b0 5
b0 3"
b0 _"
1-"
b1010000 U
b1010000 n
b1010000 K"
b11111 H
b11111 Z
b11111 a
b11111 x
b100 4
b100 k
b100 /"
b1010000 1"
b1010000 R"
b1010000 2"
b1010000 S"
1)"
b0 W
b0 o
b0 H"
0~
1}
b10001100100010010000000000000000 B
b10001100100010010000000000000000 W"
b10001100100010010000000000000000 a"
b10001100100010010000000000000000 e"
b10100011 !
b10100011 1
b10100011 +"
b10100011 T"
b10100011 u"
b1010000 X
b1010000 p
b1010000 J"
b1010000 `"
b11 i
b0 h
b0 L"
b10000100000000000000010000 @
b10000100000000000000010000 6"
b10000100000000000000010000 ]"
b100001000000000000000100 I"
b100 S
b100 m
b100 F"
b100 8"
b100 D"
b0 0"
b100 ,"
b100 P"
b100 ."
b100 O"
1C"
0@"
b1000 4"
b1110100 7
b1110100 b"
b1110100 6
b1110100 V"
b1110100 c"
b1110000 "
b1110000 )
b1110000 Y
b1110000 ^"
b1110000 d"
b10100011 2
b10100011 p"
b10100011 s"
1*
b101 :
b101 _
b101 '"
b101 o"
b100 =
b100 ^
b100 g"
b100 j"
b11 #
b11 >
b11 ]
b11 &"
b11 f"
b11 i"
b11 m"
b10000000 I
b10000000 b
b10000000 u
b11111 G
b11111 `
b11111 v
b11111111111111111111111111111100 L
b11111111111111111111111111111100 c
b11111111111111111111111111111100 t
b0 M
b0 [
b0 d
b0 s
b11 Q
b11 g
b11 q
0N
b10 O
b10 e
b10 r
0D
b100000100001000000000000000100 $
b100000100001000000000000000100 (
b100000100001000000000000000100 C
b100000100001000000000000000100 7"
b100000100001000000000000000100 X"
b100000100001000000000000000100 Z"
b10010100 T
b10010100 G"
b10010100 \"
b10000100 R
b10000100 l
b10000100 E"
b10000100 Y"
b10000100 ["
0N"
1&
#46
1N"
0&
#48
b1010100 %
b1010100 P
b1010100 \
b1010100 f
b1010100 w
b1010100 j
0-"
b10100011 U
b10100011 n
b10100011 K"
b1010100 X
b1010100 p
b1010100 J"
b1010100 `"
b1001 4
b1001 k
b1001 /"
b10100011 1"
b10100011 R"
b1 L"
b100 H
b100 Z
b100 a
b100 x
b10001001000000000000000000 @
b10001001000000000000000000 6"
b10001001000000000000000000 ]"
b100010010000000000000000 I"
b0 S
b0 m
b0 F"
b0 8"
b0 D"
b1001 ,"
b1001 P"
0C"
1?
1<"
b100011 4"
b1010000 i
b100 h
b11 !
b11 1
b11 +"
b11 T"
b11 u"
b1000010010100000000100000 B
b1000010010100000000100000 W"
b1000010010100000000100000 a"
b1000010010100000000100000 e"
b1111000 7
b1111000 b"
b1111000 6
b1111000 V"
b1111000 c"
b10001100100010010000000000000000 $
b10001100100010010000000000000000 (
b10001100100010010000000000000000 C
b10001100100010010000000000000000 7"
b10001100100010010000000000000000 X"
b10001100100010010000000000000000 Z"
b1110100 T
b1110100 G"
b1110100 \"
b1110100 R
b1110100 l
b1110100 E"
b1110100 Y"
b1110100 ["
b10000100 I
b10000100 b
b10000100 u
b100 G
b100 `
b100 v
b100 L
b100 c
b100 t
b1010000 M
b1010000 [
b1010000 d
b1010000 s
b1010000 Q
b1010000 g
b1010000 q
1N
b0 O
b0 e
b0 r
1D
b11111 :
b11111 _
b11111 '"
b11111 o"
b0 =
b0 ^
b0 g"
b0 j"
08
b101 +
b101 *"
b101 Q"
b101 r"
b11 2
b11 p"
b11 s"
b1110100 "
b1110100 )
b1110100 Y
b1110100 ^"
b1110100 d"
0N"
1&
#50
1N"
0&
#52
0-
1~
0)"
0,
1}
1-"
b1000 4
b1000 k
b1000 /"
0V
0("
b1001 H
b1001 Z
b1001 a
b1001 x
b10100011 2"
b10100011 S"
1y
b100000101001011111111111111111 B
b100000101001011111111111111111 W"
b100000101001011111111111111111 a"
b100000101001011111111111111111 e"
b10100011 X
b10100011 p
b10100011 J"
b10100011 `"
b100111 ;
b100111 5"
b100111 h"
b100111 k"
b100111 n"
b0 h
b1010100 i
b0 L"
b100001001010000000010000000 @
b100001001010000000010000000 6"
b100001001010000000010000000 ]"
b1000010010100000000100000 I"
b100000000100000 S
b100000000100000 m
b100000000100000 F"
b100000000100000 8"
b100000 D"
b1000 0"
b1000 ."
b1000 O"
0?
0<"
b0 4"
b1111100 7
b1111100 b"
b1111100 6
b1111100 V"
b1111100 c"
b1111000 "
b1111000 )
b1111000 Y
b1111000 ^"
b1111000 d"
b11111 +
b11111 *"
b11111 Q"
b11111 r"
0*
b100 :
b100 _
b100 '"
b100 o"
b1010000 =
b1010000 ^
b1010000 g"
b1010000 j"
b1010100 #
b1010100 >
b1010100 ]
b1010100 &"
b1010100 f"
b1010100 i"
b1010100 m"
18
b1110100 I
b1110100 b
b1110100 u
b1001 G
b1001 `
b1001 v
b0 L
b0 c
b0 t
b10100011 M
b10100011 [
b10100011 d
b10100011 s
b1010100 Q
b1010100 g
b1010100 q
1J
b1000010010100000000100000 $
b1000010010100000000100000 (
b1000010010100000000100000 C
b1000010010100000000100000 7"
b1000010010100000000100000 X"
b1000010010100000000100000 Z"
b10000000011111000 T
b10000000011111000 G"
b10000000011111000 \"
b1111000 R
b1111000 l
b1111000 E"
b1111000 Y"
b1111000 ["
0N"
1&
#54
1N"
0&
